{
  "status": 0,
  "result": [
    {
      "createdById": "0054N000004DZISQA4",
      "createdByName": "Isaac Collins",
      "createdDate": "2019-08-11T18:31:29.000Z",
      "fileName": "classes/WM4SF3__walkMe_group_ext.cls",
      "fullName": "WM4SF3__walkMe_group_ext",
      "id": "01p4N000008m9jGQAQ",
      "lastModifiedById": "0054N000004DZISQA4",
      "lastModifiedByName": "Isaac Collins",
      "lastModifiedDate": "2019-08-11T18:31:29.000Z",
      "manageableState": "installed",
      "namespacePrefix": "WM4SF3",
      "type": "ApexClass"
    },
    {
      "createdById": "00561000002apObAAI",
      "createdByName": "Virginia Young",
      "createdDate": "2018-08-07T17:08:08.000Z",
      "fileName": "classes/CampaignIncidentalDTO.cls",
      "fullName": "CampaignIncidentalDTO",
      "id": "01p6100000998BIAAY",
      "lastModifiedById": "00561000002apObAAI",
      "lastModifiedByName": "Virginia Young",
      "lastModifiedDate": "2018-08-07T17:08:08.000Z",
      "manageableState": "unmanaged",
      "type": "ApexClass"
    },
    {
      "createdById": "0054N000004DZISQA4",
      "createdByName": "Isaac Collins",
      "createdDate": "2019-08-11T18:31:29.000Z",
      "fileName": "classes/WM4SF3__TEST_UninstallScript.cls",
      "fullName": "WM4SF3__TEST_UninstallScript",
      "id": "01p4N000008m9j3QAA",
      "lastModifiedById": "0054N000004DZISQA4",
      "lastModifiedByName": "Isaac Collins",
      "lastModifiedDate": "2019-08-11T18:31:29.000Z",
      "manageableState": "installed",
      "namespacePrefix": "WM4SF3",
      "type": "ApexClass"
    },
    {
      "createdById": "0054N000004DZISQA4",
      "createdByName": "Isaac Collins",
      "createdDate": "2019-08-11T18:31:29.000Z",
      "fileName": "classes/WM4SF3__TEST_General.cls",
      "fullName": "WM4SF3__TEST_General",
      "id": "01p4N000008m9j2QAA",
      "lastModifiedById": "0054N000004DZISQA4",
      "lastModifiedByName": "Isaac Collins",
      "lastModifiedDate": "2019-08-11T18:31:29.000Z",
      "manageableState": "installed",
      "namespacePrefix": "WM4SF3",
      "type": "ApexClass"
    },
    {
      "createdById": "00561000002AxnRAAS",
      "createdByName": "Bard BPV",
      "createdDate": "2019-01-31T15:48:24.000Z",
      "fileName": "classes/CaPGapUtil.cls",
      "fullName": "CaPGapUtil",
      "id": "01p61000009CxtsAAC",
      "lastModifiedById": "0052h000000kXf9AAE",
      "lastModifiedByName": "Arkus Developer",
      "lastModifiedDate": "2020-10-19T12:28:44.000Z",
      "manageableState": "unmanaged",
      "type": "ApexClass"
    },
    {
      "createdById": "00561000002VHKTAA4",
      "createdByName": "justin brooks",
      "createdDate": "2018-11-08T04:55:01.000Z",
      "fileName": "classes/DMManagerEmailUpdate.cls",
      "fullName": "DMManagerEmailUpdate",
      "id": "01p61000009PSoVAAW",
      "lastModifiedById": "00561000002AxnRAAS",
      "lastModifiedByName": "Bard BPV",
      "lastModifiedDate": "2020-03-09T13:46:58.000Z",
      "manageableState": "unmanaged",
      "type": "ApexClass"
    },
    {
      "createdById": "00561000002apObAAI",
      "createdByName": "Virginia Young",
      "createdDate": "2018-08-07T17:08:08.000Z",
      "fileName": "classes/CampaignMealControllerTest.cls",
      "fullName": "CampaignMealControllerTest",
      "id": "01p6100000998BPAAY",
      "lastModifiedById": "00561000002apObAAI",
      "lastModifiedByName": "Virginia Young",
      "lastModifiedDate": "2018-08-07T17:08:08.000Z",
      "manageableState": "unmanaged",
      "type": "ApexClass"
    },
    {
      "createdById": "00561000002AxnRAAS",
      "createdByName": "Bard BPV",
      "createdDate": "2020-03-23T13:37:29.000Z",
      "fileName": "classes/ProjectUtils.cls",
      "fullName": "ProjectUtils",
      "id": "01p4N000008uPYpQAM",
      "lastModifiedById": "00561000002AxnRAAS",
      "lastModifiedByName": "Bard BPV",
      "lastModifiedDate": "2020-04-20T23:22:12.000Z",
      "manageableState": "unmanaged",
      "type": "ApexClass"
    },
    {
      "createdById": "00561000002AxnRAAS",
      "createdByName": "Bard BPV",
      "createdDate": "2019-12-05T12:46:50.000Z",
      "fileName": "classes/IRSASalesSummaryControllerTest.cls",
      "fullName": "IRSASalesSummaryControllerTest",
      "id": "01p4N000008mIbcQAE",
      "lastModifiedById": "0052h000000kXf9AAE",
      "lastModifiedByName": "Arkus Developer",
      "lastModifiedDate": "2020-10-12T14:55:10.000Z",
      "manageableState": "unmanaged",
      "type": "ApexClass"
    },
    {
      "createdById": "00561000000xceNAAQ",
      "createdByName": "Automated Process",
      "createdDate": "2017-11-07T16:18:13.000Z",
      "fileName": "classes/relateiq__OrganizationInfoTest.cls",
      "fullName": "relateiq__OrganizationInfoTest",
      "id": "01p61000008ruA1AAI",
      "lastModifiedById": "00561000000xceNAAQ",
      "lastModifiedByName": "Automated Process",
      "lastModifiedDate": "2017-11-07T16:18:13.000Z",
      "manageableState": "installed",
      "namespacePrefix": "relateiq",
      "type": "ApexClass"
    },
    {
      "createdById": "00561000002apObAAI",
      "createdByName": "Virginia Young",
      "createdDate": "2018-08-07T17:08:07.000Z",
      "fileName": "classes/CampaignAttendeeDocumentController.cls",
      "fullName": "CampaignAttendeeDocumentController",
      "id": "01p6100000998AvAAI",
      "lastModifiedById": "00561000002apObAAI",
      "lastModifiedByName": "Virginia Young",
      "lastModifiedDate": "2018-08-07T17:08:07.000Z",
      "manageableState": "unmanaged",
      "type": "ApexClass"
    },
    {
      "createdById": "00561000002apObAAI",
      "createdByName": "Virginia Young",
      "createdDate": "2018-08-07T17:08:07.000Z",
      "fileName": "classes/CampaignAttendeeDocumentControllerTest.cls",
      "fullName": "CampaignAttendeeDocumentControllerTest",
      "id": "01p6100000998AwAAI",
      "lastModifiedById": "00561000002apObAAI",
      "lastModifiedByName": "Virginia Young",
      "lastModifiedDate": "2018-08-07T17:08:07.000Z",
      "manageableState": "unmanaged",
      "type": "ApexClass"
    },
    {
      "createdById": "00561000002AxnRAAS",
      "createdByName": "Bard BPV",
      "createdDate": "2020-03-23T13:37:28.000Z",
      "fileName": "classes/ODINMassAssignTaskModalController.cls",
      "fullName": "ODINMassAssignTaskModalController",
      "id": "01p4N000008uPYlQAM",
      "lastModifiedById": "00561000002AxnRAAS",
      "lastModifiedByName": "Bard BPV",
      "lastModifiedDate": "2020-03-23T13:37:28.000Z",
      "manageableState": "unmanaged",
      "type": "ApexClass"
    },
    {
      "createdById": "00561000002apObAAI",
      "createdByName": "Virginia Young",
      "createdDate": "2018-08-07T17:08:09.000Z",
      "fileName": "classes/HCPReportController.cls",
      "fullName": "HCPReportController",
      "id": "01p6100000998BjAAI",
      "lastModifiedById": "00561000002VHKTAA4",
      "lastModifiedByName": "justin brooks",
      "lastModifiedDate": "2018-08-10T16:08:28.000Z",
      "manageableState": "unmanaged",
      "type": "ApexClass"
    },
    {
      "createdById": "00561000002apObAAI",
      "createdByName": "Virginia Young",
      "createdDate": "2018-08-07T17:08:07.000Z",
      "fileName": "classes/CampaignHotelControllerTest.cls",
      "fullName": "CampaignHotelControllerTest",
      "id": "01p6100000998BCAAY",
      "lastModifiedById": "00561000002apObAAI",
      "lastModifiedByName": "Virginia Young",
      "lastModifiedDate": "2018-08-07T17:08:07.000Z",
      "manageableState": "unmanaged",
      "type": "ApexClass"
    },
    {
      "createdById": "00561000002AxnRAAS",
      "createdByName": "Bard BPV",
      "createdDate": "2019-01-31T15:48:25.000Z",
      "fileName": "classes/PerDaySalesControllerTest.cls",
      "fullName": "PerDaySalesControllerTest",
      "id": "01p61000009CxtzAAC",
      "lastModifiedById": "00561000002AxnRAAS",
      "lastModifiedByName": "Bard BPV",
      "lastModifiedDate": "2019-07-30T22:00:02.000Z",
      "manageableState": "unmanaged",
      "type": "ApexClass"
    },
    {
      "createdById": "00561000002apObAAI",
      "createdByName": "Virginia Young",
      "createdDate": "2018-08-07T17:08:07.000Z",
      "fileName": "classes/ApostleTechLookupController.cls",
      "fullName": "ApostleTechLookupController",
      "id": "01p6100000998AtAAI",
      "lastModifiedById": "00561000002AxnRAAS",
      "lastModifiedByName": "Bard BPV",
      "lastModifiedDate": "2020-03-09T13:46:58.000Z",
      "manageableState": "unmanaged",
      "type": "ApexClass"
    },
    {
      "createdById": "00561000002apObAAI",
      "createdByName": "Virginia Young",
      "createdDate": "2018-08-07T17:08:09.000Z",
      "fileName": "classes/UserUtil.cls",
      "fullName": "UserUtil",
      "id": "01p6100000998BoAAI",
      "lastModifiedById": "00561000002apObAAI",
      "lastModifiedByName": "Virginia Young",
      "lastModifiedDate": "2018-08-07T17:08:09.000Z",
      "manageableState": "unmanaged",
      "type": "ApexClass"
    },
    {
      "createdById": "00561000002apObAAI",
      "createdByName": "Virginia Young",
      "createdDate": "2018-08-07T17:08:09.000Z",
      "fileName": "classes/HCPExpenseControllerTest.cls",
      "fullName": "HCPExpenseControllerTest",
      "id": "01p6100000998BiAAI",
      "lastModifiedById": "00561000002apObAAI",
      "lastModifiedByName": "Virginia Young",
      "lastModifiedDate": "2018-08-07T17:08:09.000Z",
      "manageableState": "unmanaged",
      "type": "ApexClass"
    },
    {
      "createdById": "00561000002apObAAI",
      "createdByName": "Virginia Young",
      "createdDate": "2018-08-07T17:08:07.000Z",
      "fileName": "classes/CampaignFlightTriggerHandler.cls",
      "fullName": "CampaignFlightTriggerHandler",
      "id": "01p6100000998B9AAI",
      "lastModifiedById": "00561000002apObAAI",
      "lastModifiedByName": "Virginia Young",
      "lastModifiedDate": "2018-08-07T17:08:07.000Z",
      "manageableState": "unmanaged",
      "type": "ApexClass"
    },
    {
      "createdById": "00561000002apObAAI",
      "createdByName": "Virginia Young",
      "createdDate": "2018-08-07T17:08:09.000Z",
      "fileName": "classes/UpcomingCoursesControllerTest.cls",
      "fullName": "UpcomingCoursesControllerTest",
      "id": "01p6100000998BnAAI",
      "lastModifiedById": "00561000002AxnRAAS",
      "lastModifiedByName": "Bard BPV",
      "lastModifiedDate": "2020-03-09T13:46:58.000Z",
      "manageableState": "unmanaged",
      "type": "ApexClass"
    },
    {
      "createdById": "00561000000xceNAAQ",
      "createdByName": "Automated Process",
      "createdDate": "2017-11-07T16:18:13.000Z",
      "fileName": "classes/relateiq__SalesforceIqPslChecker.cls",
      "fullName": "relateiq__SalesforceIqPslChecker",
      "id": "01p61000008ruA2AAI",
      "lastModifiedById": "00561000000xceNAAQ",
      "lastModifiedByName": "Automated Process",
      "lastModifiedDate": "2017-11-07T16:18:13.000Z",
      "manageableState": "installed",
      "namespacePrefix": "relateiq",
      "type": "ApexClass"
    },
    {
      "createdById": "00561000002AxnRAAS",
      "createdByName": "Bard BPV",
      "createdDate": "2017-07-21T15:32:09.000Z",
      "fileName": "classes/mytaskslabs__testTasksController.cls",
      "fullName": "mytaskslabs__testTasksController",
      "id": "01p61000008VR55AAG",
      "lastModifiedById": "00561000002AxnRAAS",
      "lastModifiedByName": "Bard BPV",
      "lastModifiedDate": "2017-07-21T15:32:09.000Z",
      "manageableState": "installed",
      "namespacePrefix": "mytaskslabs",
      "type": "ApexClass"
    },
    {
      "createdById": "0054N000004DZISQA4",
      "createdByName": "Isaac Collins",
      "createdDate": "2019-08-11T18:31:29.000Z",
      "fileName": "classes/WM4SF3__vf_LicenseController.cls",
      "fullName": "WM4SF3__vf_LicenseController",
      "id": "01p4N000008m9jFQAQ",
      "lastModifiedById": "0054N000004DZISQA4",
      "lastModifiedByName": "Isaac Collins",
      "lastModifiedDate": "2019-08-11T18:31:29.000Z",
      "manageableState": "installed",
      "namespacePrefix": "WM4SF3",
      "type": "ApexClass"
    },
    {
      "createdById": "00561000002apObAAI",
      "createdByName": "Virginia Young",
      "createdDate": "2018-08-07T17:08:08.000Z",
      "fileName": "classes/CampaignMaxCapacityException.cls",
      "fullName": "CampaignMaxCapacityException",
      "id": "01p6100000998BMAAY",
      "lastModifiedById": "00561000002apObAAI",
      "lastModifiedByName": "Virginia Young",
      "lastModifiedDate": "2018-08-07T17:08:08.000Z",
      "manageableState": "unmanaged",
      "type": "ApexClass"
    },
    {
      "createdById": "0052h000000kXf9AAE",
      "createdByName": "Arkus Developer",
      "createdDate": "2020-08-31T16:14:46.000Z",
      "fileName": "classes/ScheduledBackorderEmailAlert.cls",
      "fullName": "ScheduledBackorderEmailAlert",
      "id": "01p2h000000TjmcAAC",
      "lastModifiedById": "0052h000000kXf9AAE",
      "lastModifiedByName": "Arkus Developer",
      "lastModifiedDate": "2020-09-07T19:41:29.000Z",
      "manageableState": "unmanaged",
      "type": "ApexClass"
    },
    {
      "createdById": "0054N000004DZISQA4",
      "createdByName": "Isaac Collins",
      "createdDate": "2019-08-11T18:31:29.000Z",
      "fileName": "classes/WM4SF3__walkme_group_ext_v3.cls",
      "fullName": "WM4SF3__walkme_group_ext_v3",
      "id": "01p4N000008m9jHQAQ",
      "lastModifiedById": "0054N000004DZISQA4",
      "lastModifiedByName": "Isaac Collins",
      "lastModifiedDate": "2019-08-11T18:31:29.000Z",
      "manageableState": "installed",
      "namespacePrefix": "WM4SF3",
      "type": "ApexClass"
    },
    {
      "createdById": "00561000002AxnRAAS",
      "createdByName": "Bard BPV",
      "createdDate": "2020-03-23T13:37:28.000Z",
      "fileName": "classes/ODINFinancialModalControllerTest.cls",
      "fullName": "ODINFinancialModalControllerTest",
      "id": "01p4N000008uPYiQAM",
      "lastModifiedById": "00561000002AxnRAAS",
      "lastModifiedByName": "Bard BPV",
      "lastModifiedDate": "2020-03-23T13:37:28.000Z",
      "manageableState": "unmanaged",
      "type": "ApexClass"
    },
    {
      "createdById": "00561000002apObAAI",
      "createdByName": "Virginia Young",
      "createdDate": "2018-08-07T17:08:07.000Z",
      "fileName": "classes/CampaignFlightLegDTO.cls",
      "fullName": "CampaignFlightLegDTO",
      "id": "01p6100000998B8AAI",
      "lastModifiedById": "00561000002apObAAI",
      "lastModifiedByName": "Virginia Young",
      "lastModifiedDate": "2018-08-07T17:08:07.000Z",
      "manageableState": "unmanaged",
      "type": "ApexClass"
    },
    {
      "createdById": "0052h000000kXf9AAE",
      "createdByName": "Arkus Developer",
      "createdDate": "2020-09-01T12:38:24.000Z",
      "fileName": "classes/BackorderEmailAlertTest.cls",
      "fullName": "BackorderEmailAlertTest",
      "id": "01p2h000000TkBwAAK",
      "lastModifiedById": "0052h000000kXf9AAE",
      "lastModifiedByName": "Arkus Developer",
      "lastModifiedDate": "2020-09-07T21:30:19.000Z",
      "manageableState": "unmanaged",
      "type": "ApexClass"
    },
    {
      "createdById": "00561000002AxnRAAS",
      "createdByName": "Bard BPV",
      "createdDate": "2020-03-23T13:37:28.000Z",
      "fileName": "classes/ODINFinancialModalController.cls",
      "fullName": "ODINFinancialModalController",
      "id": "01p4N000008uPYhQAM",
      "lastModifiedById": "00561000002AxnRAAS",
      "lastModifiedByName": "Bard BPV",
      "lastModifiedDate": "2020-03-23T13:37:28.000Z",
      "manageableState": "unmanaged",
      "type": "ApexClass"
    },
    {
      "createdById": "00561000002AxnRAAS",
      "createdByName": "Bard BPV",
      "createdDate": "2017-12-22T20:32:40.000Z",
      "fileName": "classes/CaseUtilsQueueable.cls",
      "fullName": "CaseUtilsQueueable",
      "id": "01p61000008sIP1AAM",
      "lastModifiedById": "00561000002AxnRAAS",
      "lastModifiedByName": "Bard BPV",
      "lastModifiedDate": "2017-12-22T20:32:40.000Z",
      "manageableState": "unmanaged",
      "type": "ApexClass"
    },
    {
      "createdById": "0052h000000kXf9AAE",
      "createdByName": "Arkus Developer",
      "createdDate": "2020-05-18T18:31:08.000Z",
      "fileName": "classes/CompetitorUtilsTest.cls",
      "fullName": "CompetitorUtilsTest",
      "id": "01p2h000000KkW4AAK",
      "lastModifiedById": "0052h000000kXf9AAE",
      "lastModifiedByName": "Arkus Developer",
      "lastModifiedDate": "2020-05-18T20:23:24.000Z",
      "manageableState": "unmanaged",
      "type": "ApexClass"
    },
    {
      "createdById": "0054N000004DZISQA4",
      "createdByName": "Isaac Collins",
      "createdDate": "2019-08-11T18:31:28.000Z",
      "fileName": "classes/WM4SF3__DAL_WalkMeLicense.cls",
      "fullName": "WM4SF3__DAL_WalkMeLicense",
      "id": "01p4N000008m9j1QAA",
      "lastModifiedById": "0054N000004DZISQA4",
      "lastModifiedByName": "Isaac Collins",
      "lastModifiedDate": "2019-08-11T18:31:28.000Z",
      "manageableState": "installed",
      "namespacePrefix": "WM4SF3",
      "type": "ApexClass"
    },
    {
      "createdById": "0054N000004DZISQA4",
      "createdByName": "Isaac Collins",
      "createdDate": "2019-08-11T18:31:29.000Z",
      "fileName": "classes/WM4SF3__ctrl_WalkMeSfVars.cls",
      "fullName": "WM4SF3__ctrl_WalkMeSfVars",
      "id": "01p4N000008m9jDQAQ",
      "lastModifiedById": "0054N000004DZISQA4",
      "lastModifiedByName": "Isaac Collins",
      "lastModifiedDate": "2019-08-11T18:31:29.000Z",
      "manageableState": "installed",
      "namespacePrefix": "WM4SF3",
      "type": "ApexClass"
    },
    {
      "createdById": "0052h000000kXf9AAE",
      "createdByName": "Arkus Developer",
      "createdDate": "2020-05-18T21:04:53.000Z",
      "fileName": "classes/CompetitorProductRollupBatch.cls",
      "fullName": "CompetitorProductRollupBatch",
      "id": "01p2h000000KkazAAC",
      "lastModifiedById": "0052h000000kXf9AAE",
      "lastModifiedByName": "Arkus Developer",
      "lastModifiedDate": "2020-05-19T13:12:42.000Z",
      "manageableState": "unmanaged",
      "type": "ApexClass"
    },
    {
      "createdById": "00561000002apObAAI",
      "createdByName": "Virginia Young",
      "createdDate": "2018-08-07T17:08:08.000Z",
      "fileName": "classes/CampaignMealController.cls",
      "fullName": "CampaignMealController",
      "id": "01p6100000998BOAAY",
      "lastModifiedById": "00561000002apObAAI",
      "lastModifiedByName": "Virginia Young",
      "lastModifiedDate": "2018-08-07T17:08:08.000Z",
      "manageableState": "unmanaged",
      "type": "ApexClass"
    },
    {
      "createdById": "00561000002apObAAI",
      "createdByName": "Virginia Young",
      "createdDate": "2018-08-07T17:08:08.000Z",
      "fileName": "classes/CampaignIncidentalTriggerHandler.cls",
      "fullName": "CampaignIncidentalTriggerHandler",
      "id": "01p6100000998BJAAY",
      "lastModifiedById": "00561000002apObAAI",
      "lastModifiedByName": "Virginia Young",
      "lastModifiedDate": "2018-08-07T17:08:08.000Z",
      "manageableState": "unmanaged",
      "type": "ApexClass"
    },
    {
      "createdById": "00561000002AxnRAAS",
      "createdByName": "Bard BPV",
      "createdDate": "2018-06-29T16:03:57.000Z",
      "fileName": "classes/TestDataFactory.cls",
      "fullName": "TestDataFactory",
      "id": "01p610000098xSCAAY",
      "lastModifiedById": "00561000002AxnRAAS",
      "lastModifiedByName": "Bard BPV",
      "lastModifiedDate": "2019-12-03T16:47:05.000Z",
      "manageableState": "unmanaged",
      "type": "ApexClass"
    },
    {
      "createdById": "00561000002AxnRAAS",
      "createdByName": "Bard BPV",
      "createdDate": "2019-01-31T15:48:25.000Z",
      "fileName": "classes/PerDaySalesTestUtil.cls",
      "fullName": "PerDaySalesTestUtil",
      "id": "01p61000009Cxu0AAC",
      "lastModifiedById": "0052h000000kXf9AAE",
      "lastModifiedByName": "Arkus Developer",
      "lastModifiedDate": "2020-07-14T17:38:09.000Z",
      "manageableState": "unmanaged",
      "type": "ApexClass"
    },
    {
      "createdById": "00561000000xceNAAQ",
      "createdByName": "Automated Process",
      "createdDate": "2017-11-07T16:18:13.000Z",
      "fileName": "classes/relateiq__SalesforceIqPslCheckerTest.cls",
      "fullName": "relateiq__SalesforceIqPslCheckerTest",
      "id": "01p61000008ruA3AAI",
      "lastModifiedById": "00561000000xceNAAQ",
      "lastModifiedByName": "Automated Process",
      "lastModifiedDate": "2017-11-07T16:18:13.000Z",
      "manageableState": "installed",
      "namespacePrefix": "relateiq",
      "type": "ApexClass"
    },
    {
      "createdById": "00561000002AxnRAAS",
      "createdByName": "Bard BPV",
      "createdDate": "2019-12-03T16:47:05.000Z",
      "fileName": "classes/ScheduledSalesDataEmailNotification.cls",
      "fullName": "ScheduledSalesDataEmailNotification",
      "id": "01p4N000008mIWUQA2",
      "lastModifiedById": "00561000002AxnRAAS",
      "lastModifiedByName": "Bard BPV",
      "lastModifiedDate": "2019-12-03T16:47:05.000Z",
      "manageableState": "unmanaged",
      "type": "ApexClass"
    },
    {
      "createdById": "00561000002AxnRAAS",
      "createdByName": "Bard BPV",
      "createdDate": "2019-01-31T15:48:25.000Z",
      "fileName": "classes/CustomerAndProductGapTestUtil.cls",
      "fullName": "CustomerAndProductGapTestUtil",
      "id": "01p61000009CxtvAAC",
      "lastModifiedById": "0052h000000kXf9AAE",
      "lastModifiedByName": "Arkus Developer",
      "lastModifiedDate": "2020-05-25T16:47:41.000Z",
      "manageableState": "unmanaged",
      "type": "ApexClass"
    },
    {
      "createdById": "00561000002apObAAI",
      "createdByName": "Virginia Young",
      "createdDate": "2018-08-07T17:08:08.000Z",
      "fileName": "classes/CampaignMemberController.cls",
      "fullName": "CampaignMemberController",
      "id": "01p6100000998BSAAY",
      "lastModifiedById": "0052h000000kXf9AAE",
      "lastModifiedByName": "Arkus Developer",
      "lastModifiedDate": "2020-05-19T13:18:27.000Z",
      "manageableState": "unmanaged",
      "type": "ApexClass"
    },
    {
      "createdById": "00561000002AxnRAAS",
      "createdByName": "Bard BPV",
      "createdDate": "2018-12-20T17:49:50.000Z",
      "fileName": "classes/CMTD__ERL_RTSelector_CC.cls",
      "fullName": "CMTD__ERL_RTSelector_CC",
      "id": "01p61000009PWCyAAO",
      "lastModifiedById": "00561000002AxnRAAS",
      "lastModifiedByName": "Bard BPV",
      "lastModifiedDate": "2018-12-20T17:49:50.000Z",
      "manageableState": "installed",
      "namespacePrefix": "CMTD",
      "type": "ApexClass"
    },
    {
      "createdById": "00561000002AxnRAAS",
      "createdByName": "Bard BPV",
      "createdDate": "2018-06-29T16:03:57.000Z",
      "fileName": "classes/FieldNameUtil.cls",
      "fullName": "FieldNameUtil",
      "id": "01p610000098xS5AAI",
      "lastModifiedById": "00561000002apObAAI",
      "lastModifiedByName": "Virginia Young",
      "lastModifiedDate": "2018-08-07T17:08:09.000Z",
      "manageableState": "unmanaged",
      "type": "ApexClass"
    },
    {
      "createdById": "00561000002AxnRAAS",
      "createdByName": "Bard BPV",
      "createdDate": "2019-01-31T15:48:24.000Z",
      "fileName": "classes/CustomerAndProductGapControllerTest.cls",
      "fullName": "CustomerAndProductGapControllerTest",
      "id": "01p61000009CxtuAAC",
      "lastModifiedById": "0052h000000kXf9AAE",
      "lastModifiedByName": "Arkus Developer",
      "lastModifiedDate": "2020-09-21T19:40:00.000Z",
      "manageableState": "unmanaged",
      "type": "ApexClass"
    },
    {
      "createdById": "00561000002apObAAI",
      "createdByName": "Virginia Young",
      "createdDate": "2018-08-07T17:08:08.000Z",
      "fileName": "classes/CampaignTransportationControllerTest.cls",
      "fullName": "CampaignTransportationControllerTest",
      "id": "01p6100000998BbAAI",
      "lastModifiedById": "00561000002apObAAI",
      "lastModifiedByName": "Virginia Young",
      "lastModifiedDate": "2018-08-07T17:08:08.000Z",
      "manageableState": "unmanaged",
      "type": "ApexClass"
    },
    {
      "createdById": "00561000002apObAAI",
      "createdByName": "Virginia Young",
      "createdDate": "2018-08-07T17:08:07.000Z",
      "fileName": "classes/CampaignExpensesController.cls",
      "fullName": "CampaignExpensesController",
      "id": "01p6100000998B3AAI",
      "lastModifiedById": "00561000002apObAAI",
      "lastModifiedByName": "Virginia Young",
      "lastModifiedDate": "2018-08-07T17:08:07.000Z",
      "manageableState": "unmanaged",
      "type": "ApexClass"
    },
    {
      "createdById": "00561000002AxnRAAS",
      "createdByName": "Bard BPV",
      "createdDate": "2017-12-22T20:32:40.000Z",
      "fileName": "classes/ProductUsedUtils.cls",
      "fullName": "ProductUsedUtils",
      "id": "01p61000008sIP3AAM",
      "lastModifiedById": "00561000002AxnRAAS",
      "lastModifiedByName": "Bard BPV",
      "lastModifiedDate": "2017-12-22T20:32:40.000Z",
      "manageableState": "unmanaged",
      "type": "ApexClass"
    },
    {
      "createdById": "00561000002AxnRAAS",
      "createdByName": "Bard BPV",
      "createdDate": "2017-12-08T13:19:52.000Z",
      "fileName": "classes/Field_Trip__analyzeLaunchExtensionTests.cls",
      "fullName": "Field_Trip__analyzeLaunchExtensionTests",
      "id": "01p61000008sD9rAAE",
      "lastModifiedById": "00561000002AxnRAAS",
      "lastModifiedByName": "Bard BPV",
      "lastModifiedDate": "2017-12-08T13:19:52.000Z",
      "manageableState": "installed",
      "namespacePrefix": "Field_Trip",
      "type": "ApexClass"
    },
    {
      "createdById": "00561000002AxnRAAS",
      "createdByName": "Bard BPV",
      "createdDate": "2017-07-21T15:32:08.000Z",
      "fileName": "classes/mytaskslabs__tasksController.cls",
      "fullName": "mytaskslabs__tasksController",
      "id": "01p61000008VR54AAG",
      "lastModifiedById": "00561000002AxnRAAS",
      "lastModifiedByName": "Bard BPV",
      "lastModifiedDate": "2017-07-21T15:32:08.000Z",
      "manageableState": "installed",
      "namespacePrefix": "mytaskslabs",
      "type": "ApexClass"
    },
    {
      "createdById": "00561000002apObAAI",
      "createdByName": "Virginia Young",
      "createdDate": "2018-08-07T17:08:09.000Z",
      "fileName": "classes/HCPExpenseController.cls",
      "fullName": "HCPExpenseController",
      "id": "01p6100000998BhAAI",
      "lastModifiedById": "00561000002apObAAI",
      "lastModifiedByName": "Virginia Young",
      "lastModifiedDate": "2018-08-07T17:08:09.000Z",
      "manageableState": "unmanaged",
      "type": "ApexClass"
    },
    {
      "createdById": "00561000002apObAAI",
      "createdByName": "Virginia Young",
      "createdDate": "2018-08-07T17:08:08.000Z",
      "fileName": "classes/CampaignLedgerControllerTest.cls",
      "fullName": "CampaignLedgerControllerTest",
      "id": "01p6100000998BLAAY",
      "lastModifiedById": "00561000002apObAAI",
      "lastModifiedByName": "Virginia Young",
      "lastModifiedDate": "2018-08-07T17:08:08.000Z",
      "manageableState": "unmanaged",
      "type": "ApexClass"
    },
    {
      "createdById": "00561000002apObAAI",
      "createdByName": "Virginia Young",
      "createdDate": "2018-08-07T17:08:07.000Z",
      "fileName": "classes/CampaignCloneController.cls",
      "fullName": "CampaignCloneController",
      "id": "01p6100000998AyAAI",
      "lastModifiedById": "00561000002apObAAI",
      "lastModifiedByName": "Virginia Young",
      "lastModifiedDate": "2018-08-07T17:08:07.000Z",
      "manageableState": "unmanaged",
      "type": "ApexClass"
    },
    {
      "createdById": "00561000002apObAAI",
      "createdByName": "Virginia Young",
      "createdDate": "2018-08-07T17:08:07.000Z",
      "fileName": "classes/CampaignFlightController.cls",
      "fullName": "CampaignFlightController",
      "id": "01p6100000998B5AAI",
      "lastModifiedById": "00561000002apObAAI",
      "lastModifiedByName": "Virginia Young",
      "lastModifiedDate": "2018-08-07T17:08:07.000Z",
      "manageableState": "unmanaged",
      "type": "ApexClass"
    },
    {
      "createdById": "00561000002apObAAI",
      "createdByName": "Virginia Young",
      "createdDate": "2018-08-07T17:08:08.000Z",
      "fileName": "classes/CampaignMealDTO.cls",
      "fullName": "CampaignMealDTO",
      "id": "01p6100000998BQAAY",
      "lastModifiedById": "00561000002apObAAI",
      "lastModifiedByName": "Virginia Young",
      "lastModifiedDate": "2018-08-07T17:08:08.000Z",
      "manageableState": "unmanaged",
      "type": "ApexClass"
    },
    {
      "createdById": "00561000002VHKTAA4",
      "createdByName": "justin brooks",
      "createdDate": "2018-09-06T17:23:49.000Z",
      "fileName": "classes/campaignMemberHandler_TC.cls",
      "fullName": "campaignMemberHandler_TC",
      "id": "01p61000009PEmVAAW",
      "lastModifiedById": "00561000002VHKTAA4",
      "lastModifiedByName": "justin brooks",
      "lastModifiedDate": "2018-09-06T17:23:49.000Z",
      "manageableState": "unmanaged",
      "type": "ApexClass"
    },
    {
      "createdById": "00561000002apObAAI",
      "createdByName": "Virginia Young",
      "createdDate": "2018-08-07T17:08:08.000Z",
      "fileName": "classes/CampaignTransportationTriggerHandler.cls",
      "fullName": "CampaignTransportationTriggerHandler",
      "id": "01p6100000998BdAAI",
      "lastModifiedById": "00561000002apObAAI",
      "lastModifiedByName": "Virginia Young",
      "lastModifiedDate": "2018-08-07T17:08:08.000Z",
      "manageableState": "unmanaged",
      "type": "ApexClass"
    },
    {
      "createdById": "00561000002apObAAI",
      "createdByName": "Virginia Young",
      "createdDate": "2018-08-07T17:08:08.000Z",
      "fileName": "classes/CampaignMealTriggerHandler.cls",
      "fullName": "CampaignMealTriggerHandler",
      "id": "01p6100000998BRAAY",
      "lastModifiedById": "00561000002apObAAI",
      "lastModifiedByName": "Virginia Young",
      "lastModifiedDate": "2018-08-07T17:08:08.000Z",
      "manageableState": "unmanaged",
      "type": "ApexClass"
    },
    {
      "createdById": "00561000002AxnRAAS",
      "createdByName": "Bard BPV",
      "createdDate": "2018-12-20T17:49:51.000Z",
      "fileName": "classes/CMTD__EnhancedRelatedList_CC.cls",
      "fullName": "CMTD__EnhancedRelatedList_CC",
      "id": "01p61000009PWD0AAO",
      "lastModifiedById": "00561000002AxnRAAS",
      "lastModifiedByName": "Bard BPV",
      "lastModifiedDate": "2018-12-20T17:49:51.000Z",
      "manageableState": "installed",
      "namespacePrefix": "CMTD",
      "type": "ApexClass"
    },
    {
      "createdById": "00561000002AxnRAAS",
      "createdByName": "Bard BPV",
      "createdDate": "2018-12-20T17:49:51.000Z",
      "fileName": "classes/CMTD__EnhancedRelatedList_Test.cls",
      "fullName": "CMTD__EnhancedRelatedList_Test",
      "id": "01p61000009PWD1AAO",
      "lastModifiedById": "00561000002AxnRAAS",
      "lastModifiedByName": "Bard BPV",
      "lastModifiedDate": "2018-12-20T17:49:51.000Z",
      "manageableState": "installed",
      "namespacePrefix": "CMTD",
      "type": "ApexClass"
    },
    {
      "createdById": "00561000002AxnRAAS",
      "createdByName": "Bard BPV",
      "createdDate": "2020-05-06T21:30:32.000Z",
      "fileName": "classes/ODINReportCreatorControllerTest.cls",
      "fullName": "ODINReportCreatorControllerTest",
      "id": "01p4N0000090xnkQAA",
      "lastModifiedById": "00561000002AxnRAAS",
      "lastModifiedByName": "Bard BPV",
      "lastModifiedDate": "2020-05-07T15:45:29.000Z",
      "manageableState": "unmanaged",
      "type": "ApexClass"
    },
    {
      "createdById": "00561000002VHKTAA4",
      "createdByName": "justin brooks",
      "createdDate": "2018-09-06T17:23:49.000Z",
      "fileName": "classes/campaignMemberHandler.cls",
      "fullName": "campaignMemberHandler",
      "id": "01p61000009PEmUAAW",
      "lastModifiedById": "00561000002VHKTAA4",
      "lastModifiedByName": "justin brooks",
      "lastModifiedDate": "2018-09-06T17:23:49.000Z",
      "manageableState": "unmanaged",
      "type": "ApexClass"
    },
    {
      "createdById": "00561000002apObAAI",
      "createdByName": "Virginia Young",
      "createdDate": "2018-08-07T17:08:08.000Z",
      "fileName": "classes/CampaignIncidentalControllerTest.cls",
      "fullName": "CampaignIncidentalControllerTest",
      "id": "01p6100000998BHAAY",
      "lastModifiedById": "00561000002apObAAI",
      "lastModifiedByName": "Virginia Young",
      "lastModifiedDate": "2018-08-07T17:08:08.000Z",
      "manageableState": "unmanaged",
      "type": "ApexClass"
    },
    {
      "createdById": "00561000002AxnRAAS",
      "createdByName": "Bard BPV",
      "createdDate": "2020-03-23T13:37:28.000Z",
      "fileName": "classes/ODINMassAssignTaskModalControllerTest.cls",
      "fullName": "ODINMassAssignTaskModalControllerTest",
      "id": "01p4N000008uPYmQAM",
      "lastModifiedById": "00561000002AxnRAAS",
      "lastModifiedByName": "Bard BPV",
      "lastModifiedDate": "2020-03-23T13:37:28.000Z",
      "manageableState": "unmanaged",
      "type": "ApexClass"
    },
    {
      "createdById": "00561000002AxnRAAS",
      "createdByName": "Bard BPV",
      "createdDate": "2020-03-23T13:37:28.000Z",
      "fileName": "classes/ODINGlobalFinancialWizzardControllerTest.cls",
      "fullName": "ODINGlobalFinancialWizzardControllerTest",
      "id": "01p4N000008uPYkQAM",
      "lastModifiedById": "00561000002AxnRAAS",
      "lastModifiedByName": "Bard BPV",
      "lastModifiedDate": "2020-04-16T11:20:31.000Z",
      "manageableState": "unmanaged",
      "type": "ApexClass"
    },
    {
      "createdById": "00561000002AxnRAAS",
      "createdByName": "Bard BPV",
      "createdDate": "2020-03-23T13:37:29.000Z",
      "fileName": "classes/ProjectUtilsTest.cls",
      "fullName": "ProjectUtilsTest",
      "id": "01p4N000008uPYqQAM",
      "lastModifiedById": "00561000002AxnRAAS",
      "lastModifiedByName": "Bard BPV",
      "lastModifiedDate": "2020-04-20T23:22:12.000Z",
      "manageableState": "unmanaged",
      "type": "ApexClass"
    },
    {
      "createdById": "00561000002VHKTAA4",
      "createdByName": "justin brooks",
      "createdDate": "2018-11-08T04:55:02.000Z",
      "fileName": "classes/KOLNominationButtonCTRL.cls",
      "fullName": "KOLNominationButtonCTRL",
      "id": "01p61000009PSoXAAW",
      "lastModifiedById": "00561000002VHKTAA4",
      "lastModifiedByName": "justin brooks",
      "lastModifiedDate": "2018-11-08T04:55:02.000Z",
      "manageableState": "unmanaged",
      "type": "ApexClass"
    },
    {
      "createdById": "00561000002AxnRAAS",
      "createdByName": "Bard BPV",
      "createdDate": "2017-12-08T13:19:52.000Z",
      "fileName": "classes/Field_Trip__analyzeObject.cls",
      "fullName": "Field_Trip__analyzeObject",
      "id": "01p61000008sD9sAAE",
      "lastModifiedById": "00561000002AxnRAAS",
      "lastModifiedByName": "Bard BPV",
      "lastModifiedDate": "2017-12-08T13:19:52.000Z",
      "manageableState": "installed",
      "namespacePrefix": "Field_Trip",
      "type": "ApexClass"
    },
    {
      "createdById": "00561000002AxnRAAS",
      "createdByName": "Bard BPV",
      "createdDate": "2017-12-08T13:19:52.000Z",
      "fileName": "classes/Field_Trip__analyzeCreateExtensionTests.cls",
      "fullName": "Field_Trip__analyzeCreateExtensionTests",
      "id": "01p61000008sD9pAAE",
      "lastModifiedById": "00561000002AxnRAAS",
      "lastModifiedByName": "Bard BPV",
      "lastModifiedDate": "2017-12-08T13:19:52.000Z",
      "manageableState": "installed",
      "namespacePrefix": "Field_Trip",
      "type": "ApexClass"
    },
    {
      "createdById": "0052h000000kXf9AAE",
      "createdByName": "Arkus Developer",
      "createdDate": "2020-05-18T21:51:21.000Z",
      "fileName": "classes/CompetitorProductRollupBatchTest.cls",
      "fullName": "CompetitorProductRollupBatchTest",
      "id": "01p2h000000Kkc7AAC",
      "lastModifiedById": "0052h000000kXf9AAE",
      "lastModifiedByName": "Arkus Developer",
      "lastModifiedDate": "2020-05-19T13:12:59.000Z",
      "manageableState": "unmanaged",
      "type": "ApexClass"
    },
    {
      "createdById": "00561000002AxnRAAS",
      "createdByName": "Bard BPV",
      "createdDate": "2018-06-29T16:03:57.000Z",
      "fileName": "classes/PersonDTO.cls",
      "fullName": "PersonDTO",
      "id": "01p610000098xS9AAI",
      "lastModifiedById": "00561000002apObAAI",
      "lastModifiedByName": "Virginia Young",
      "lastModifiedDate": "2018-08-07T17:08:09.000Z",
      "manageableState": "unmanaged",
      "type": "ApexClass"
    },
    {
      "createdById": "0054N000004DZISQA4",
      "createdByName": "Isaac Collins",
      "createdDate": "2019-08-11T18:31:29.000Z",
      "fileName": "classes/WM4SF3__TestF_vf_WalkMeSfVars.cls",
      "fullName": "WM4SF3__TestF_vf_WalkMeSfVars",
      "id": "01p4N000008m9j6QAA",
      "lastModifiedById": "0054N000004DZISQA4",
      "lastModifiedByName": "Isaac Collins",
      "lastModifiedDate": "2019-08-11T18:31:29.000Z",
      "manageableState": "installed",
      "namespacePrefix": "WM4SF3",
      "type": "ApexClass"
    },
    {
      "createdById": "00561000002AxnRAAS",
      "createdByName": "Bard BPV",
      "createdDate": "2020-01-30T19:36:34.000Z",
      "fileName": "classes/HolidaysUtilTest.cls",
      "fullName": "HolidaysUtilTest",
      "id": "01p4N000008uNN8QAM",
      "lastModifiedById": "00561000002AxnRAAS",
      "lastModifiedByName": "Bard BPV",
      "lastModifiedDate": "2020-02-03T12:44:24.000Z",
      "manageableState": "unmanaged",
      "type": "ApexClass"
    },
    {
      "createdById": "00561000002apObAAI",
      "createdByName": "Virginia Young",
      "createdDate": "2018-08-07T17:08:07.000Z",
      "fileName": "classes/CampaignFlightControllerTest.cls",
      "fullName": "CampaignFlightControllerTest",
      "id": "01p6100000998B6AAI",
      "lastModifiedById": "00561000002apObAAI",
      "lastModifiedByName": "Virginia Young",
      "lastModifiedDate": "2018-08-07T17:08:07.000Z",
      "manageableState": "unmanaged",
      "type": "ApexClass"
    },
    {
      "createdById": "00561000002AxnRAAS",
      "createdByName": "Bard BPV",
      "createdDate": "2020-03-23T13:37:28.000Z",
      "fileName": "classes/ODINProductModalControllerTest.cls",
      "fullName": "ODINProductModalControllerTest",
      "id": "01p4N000008uPYoQAM",
      "lastModifiedById": "00561000002AxnRAAS",
      "lastModifiedByName": "Bard BPV",
      "lastModifiedDate": "2020-04-09T12:27:58.000Z",
      "manageableState": "unmanaged",
      "type": "ApexClass"
    },
    {
      "createdById": "00561000002AxnRAAS",
      "createdByName": "Bard BPV",
      "createdDate": "2019-01-31T15:48:25.000Z",
      "fileName": "classes/PDS_UserSelectorControllerTest.cls",
      "fullName": "PDS_UserSelectorControllerTest",
      "id": "01p61000009CxtxAAC",
      "lastModifiedById": "0052h000000kXf9AAE",
      "lastModifiedByName": "Arkus Developer",
      "lastModifiedDate": "2020-09-21T13:40:36.000Z",
      "manageableState": "unmanaged",
      "type": "ApexClass"
    },
    {
      "createdById": "00561000002AxnRAAS",
      "createdByName": "Bard BPV",
      "createdDate": "2019-12-03T16:47:05.000Z",
      "fileName": "classes/SalesDataEmailNotificationUtils.cls",
      "fullName": "SalesDataEmailNotificationUtils",
      "id": "01p4N000008mIWTQA2",
      "lastModifiedById": "00561000002AxnRAAS",
      "lastModifiedByName": "Bard BPV",
      "lastModifiedDate": "2020-10-07T17:05:30.000Z",
      "manageableState": "unmanaged",
      "type": "ApexClass"
    },
    {
      "createdById": "0052h000000kXf9AAE",
      "createdByName": "Arkus Developer",
      "createdDate": "2020-09-03T05:34:01.000Z",
      "fileName": "classes/createBackorderScript.cls",
      "fullName": "createBackorderScript",
      "id": "01p2h000000TlmZAAS",
      "lastModifiedById": "0052h000000kXf9AAE",
      "lastModifiedByName": "Arkus Developer",
      "lastModifiedDate": "2020-09-03T13:46:54.000Z",
      "manageableState": "unmanaged",
      "type": "ApexClass"
    },
    {
      "createdById": "00561000002AxnRAAS",
      "createdByName": "Bard BPV",
      "createdDate": "2018-06-29T16:03:57.000Z",
      "fileName": "classes/PageNavUtil.cls",
      "fullName": "PageNavUtil",
      "id": "01p610000098xS8AAI",
      "lastModifiedById": "00561000002apObAAI",
      "lastModifiedByName": "Virginia Young",
      "lastModifiedDate": "2018-08-07T17:08:09.000Z",
      "manageableState": "unmanaged",
      "type": "ApexClass"
    },
    {
      "createdById": "0054N000004DZISQA4",
      "createdByName": "Isaac Collins",
      "createdDate": "2019-08-11T18:31:29.000Z",
      "fileName": "classes/WM4SF3__ctrl_usage.cls",
      "fullName": "WM4SF3__ctrl_usage",
      "id": "01p4N000008m9jEQAQ",
      "lastModifiedById": "0054N000004DZISQA4",
      "lastModifiedByName": "Isaac Collins",
      "lastModifiedDate": "2019-08-11T18:31:29.000Z",
      "manageableState": "installed",
      "namespacePrefix": "WM4SF3",
      "type": "ApexClass"
    },
    {
      "createdById": "00561000002apObAAI",
      "createdByName": "Virginia Young",
      "createdDate": "2018-08-07T17:08:08.000Z",
      "fileName": "classes/CampaignTransportationController.cls",
      "fullName": "CampaignTransportationController",
      "id": "01p6100000998BaAAI",
      "lastModifiedById": "00561000002apObAAI",
      "lastModifiedByName": "Virginia Young",
      "lastModifiedDate": "2018-08-07T17:08:08.000Z",
      "manageableState": "unmanaged",
      "type": "ApexClass"
    },
    {
      "createdById": "00561000002AxnRAAS",
      "createdByName": "Bard BPV",
      "createdDate": "2019-12-03T16:47:05.000Z",
      "fileName": "classes/SalesDataEmailNotificationTest.cls",
      "fullName": "SalesDataEmailNotificationTest",
      "id": "01p4N000008mIWSQA2",
      "lastModifiedById": "00561000002AxnRAAS",
      "lastModifiedByName": "Bard BPV",
      "lastModifiedDate": "2019-12-03T16:47:05.000Z",
      "manageableState": "unmanaged",
      "type": "ApexClass"
    },
    {
      "createdById": "0054N000004DZISQA4",
      "createdByName": "Isaac Collins",
      "createdDate": "2019-08-11T18:31:29.000Z",
      "fileName": "classes/WM4SF3__WalkMeSfVars_segmented_test.cls",
      "fullName": "WM4SF3__WalkMeSfVars_segmented_test",
      "id": "01p4N000008m9jAQAQ",
      "lastModifiedById": "0054N000004DZISQA4",
      "lastModifiedByName": "Isaac Collins",
      "lastModifiedDate": "2019-08-11T18:31:29.000Z",
      "manageableState": "installed",
      "namespacePrefix": "WM4SF3",
      "type": "ApexClass"
    },
    {
      "createdById": "0052h000000kXf9AAE",
      "createdByName": "Arkus Developer",
      "createdDate": "2020-08-31T15:57:50.000Z",
      "fileName": "classes/BackorderEmailAlert.cls",
      "fullName": "BackorderEmailAlert",
      "id": "01p2h000000TjmXAAS",
      "lastModifiedById": "00561000002AxnRAAS",
      "lastModifiedByName": "Bard BPV",
      "lastModifiedDate": "2020-10-07T17:05:47.000Z",
      "manageableState": "unmanaged",
      "type": "ApexClass"
    },
    {
      "createdById": "00561000002AxnRAAS",
      "createdByName": "Bard BPV",
      "createdDate": "2017-12-08T13:19:52.000Z",
      "fileName": "classes/Field_Trip__analyzeLaunchExtension.cls",
      "fullName": "Field_Trip__analyzeLaunchExtension",
      "id": "01p61000008sD9qAAE",
      "lastModifiedById": "00561000002AxnRAAS",
      "lastModifiedByName": "Bard BPV",
      "lastModifiedDate": "2017-12-08T13:19:52.000Z",
      "manageableState": "installed",
      "namespacePrefix": "Field_Trip",
      "type": "ApexClass"
    },
    {
      "createdById": "00561000002AxnRAAS",
      "createdByName": "Bard BPV",
      "createdDate": "2019-01-31T15:48:25.000Z",
      "fileName": "classes/PDS_UserSelectorController.cls",
      "fullName": "PDS_UserSelectorController",
      "id": "01p61000009CxtwAAC",
      "lastModifiedById": "0052h000000kXf9AAE",
      "lastModifiedByName": "Arkus Developer",
      "lastModifiedDate": "2020-09-21T18:51:13.000Z",
      "manageableState": "unmanaged",
      "type": "ApexClass"
    },
    {
      "createdById": "00561000002apObAAI",
      "createdByName": "Virginia Young",
      "createdDate": "2018-08-07T17:08:08.000Z",
      "fileName": "classes/CampaignHotelTriggerHandler.cls",
      "fullName": "CampaignHotelTriggerHandler",
      "id": "01p6100000998BEAAY",
      "lastModifiedById": "00561000002apObAAI",
      "lastModifiedByName": "Virginia Young",
      "lastModifiedDate": "2018-08-07T17:08:08.000Z",
      "manageableState": "unmanaged",
      "type": "ApexClass"
    },
    {
      "createdById": "00561000002AxnRAAS",
      "createdByName": "Bard BPV",
      "createdDate": "2020-03-23T13:37:28.000Z",
      "fileName": "classes/ODINProductModalController.cls",
      "fullName": "ODINProductModalController",
      "id": "01p4N000008uPYnQAM",
      "lastModifiedById": "00561000002AxnRAAS",
      "lastModifiedByName": "Bard BPV",
      "lastModifiedDate": "2020-04-09T12:27:58.000Z",
      "manageableState": "unmanaged",
      "type": "ApexClass"
    },
    {
      "createdById": "00561000002AxnRAAS",
      "createdByName": "Bard BPV",
      "createdDate": "2017-12-08T13:19:52.000Z",
      "fileName": "classes/Field_Trip__fieldTripStatusExtension.cls",
      "fullName": "Field_Trip__fieldTripStatusExtension",
      "id": "01p61000008sD9tAAE",
      "lastModifiedById": "00561000002AxnRAAS",
      "lastModifiedByName": "Bard BPV",
      "lastModifiedDate": "2017-12-08T13:19:52.000Z",
      "manageableState": "installed",
      "namespacePrefix": "Field_Trip",
      "type": "ApexClass"
    },
    {
      "createdById": "00561000002apObAAI",
      "createdByName": "Virginia Young",
      "createdDate": "2018-08-07T17:08:08.000Z",
      "fileName": "classes/CampaignIncidentalController.cls",
      "fullName": "CampaignIncidentalController",
      "id": "01p6100000998BGAAY",
      "lastModifiedById": "00561000002apObAAI",
      "lastModifiedByName": "Virginia Young",
      "lastModifiedDate": "2018-08-07T17:08:08.000Z",
      "manageableState": "unmanaged",
      "type": "ApexClass"
    },
    {
      "createdById": "00561000002VHKTAA4",
      "createdByName": "justin brooks",
      "createdDate": "2018-11-08T04:55:02.000Z",
      "fileName": "classes/KOLNominationPDF.cls",
      "fullName": "KOLNominationPDF",
      "id": "01p61000009PSoYAAW",
      "lastModifiedById": "00561000002AxnRAAS",
      "lastModifiedByName": "Bard BPV",
      "lastModifiedDate": "2020-03-09T13:46:58.000Z",
      "manageableState": "unmanaged",
      "type": "ApexClass"
    },
    {
      "createdById": "00561000002AxnRAAS",
      "createdByName": "Bard BPV",
      "createdDate": "2020-10-29T19:28:16.000Z",
      "fileName": "classes/AutocreatedRegHandler1603999695498.cls",
      "fullName": "AutocreatedRegHandler1603999695498",
      "id": "01p2h000000U7hnAAC",
      "lastModifiedById": "00561000002AxnRAAS",
      "lastModifiedByName": "Bard BPV",
      "lastModifiedDate": "2020-10-29T19:28:16.000Z",
      "manageableState": "unmanaged",
      "type": "ApexClass"
    },
    {
      "createdById": "00561000002apObAAI",
      "createdByName": "Virginia Young",
      "createdDate": "2018-08-07T17:08:08.000Z",
      "fileName": "classes/CampaignMealAttendeeDTO.cls",
      "fullName": "CampaignMealAttendeeDTO",
      "id": "01p6100000998BNAAY",
      "lastModifiedById": "00561000002apObAAI",
      "lastModifiedByName": "Virginia Young",
      "lastModifiedDate": "2018-08-07T17:08:08.000Z",
      "manageableState": "unmanaged",
      "type": "ApexClass"
    },
    {
      "createdById": "00561000002apObAAI",
      "createdByName": "Virginia Young",
      "createdDate": "2018-08-07T17:08:08.000Z",
      "fileName": "classes/CampaignIncidentalAttendeeDTO.cls",
      "fullName": "CampaignIncidentalAttendeeDTO",
      "id": "01p6100000998BFAAY",
      "lastModifiedById": "00561000002apObAAI",
      "lastModifiedByName": "Virginia Young",
      "lastModifiedDate": "2018-08-07T17:08:08.000Z",
      "manageableState": "unmanaged",
      "type": "ApexClass"
    },
    {
      "createdById": "00561000002AxnRAAS",
      "createdByName": "Bard BPV",
      "createdDate": "2017-12-22T20:32:40.000Z",
      "fileName": "classes/CaseUtils.cls",
      "fullName": "CaseUtils",
      "id": "01p61000008sIP0AAM",
      "lastModifiedById": "00561000002AxnRAAS",
      "lastModifiedByName": "Bard BPV",
      "lastModifiedDate": "2017-12-22T20:32:40.000Z",
      "manageableState": "unmanaged",
      "type": "ApexClass"
    },
    {
      "createdById": "00561000002apObAAI",
      "createdByName": "Virginia Young",
      "createdDate": "2018-08-07T17:08:07.000Z",
      "fileName": "classes/CampaignDTO.cls",
      "fullName": "CampaignDTO",
      "id": "01p6100000998B0AAI",
      "lastModifiedById": "00561000002apObAAI",
      "lastModifiedByName": "Virginia Young",
      "lastModifiedDate": "2018-08-07T17:08:07.000Z",
      "manageableState": "unmanaged",
      "type": "ApexClass"
    },
    {
      "createdById": "00561000002apObAAI",
      "createdByName": "Virginia Young",
      "createdDate": "2018-08-07T17:08:08.000Z",
      "fileName": "classes/CampaignTransportationDTO.cls",
      "fullName": "CampaignTransportationDTO",
      "id": "01p6100000998BcAAI",
      "lastModifiedById": "00561000002apObAAI",
      "lastModifiedByName": "Virginia Young",
      "lastModifiedDate": "2018-08-07T17:08:08.000Z",
      "manageableState": "unmanaged",
      "type": "ApexClass"
    },
    {
      "createdById": "0054N000004DZISQA4",
      "createdByName": "Isaac Collins",
      "createdDate": "2019-08-11T18:31:29.000Z",
      "fileName": "classes/WM4SF3__ctrl_WalkMeMobileSettings.cls",
      "fullName": "WM4SF3__ctrl_WalkMeMobileSettings",
      "id": "01p4N000008m9jCQAQ",
      "lastModifiedById": "0054N000004DZISQA4",
      "lastModifiedByName": "Isaac Collins",
      "lastModifiedDate": "2019-08-11T18:31:29.000Z",
      "manageableState": "installed",
      "namespacePrefix": "WM4SF3",
      "type": "ApexClass"
    },
    {
      "createdById": "00561000002AxnRAAS",
      "createdByName": "Bard BPV",
      "createdDate": "2017-12-08T13:19:51.000Z",
      "fileName": "classes/Field_Trip__analyzeCreateExtension.cls",
      "fullName": "Field_Trip__analyzeCreateExtension",
      "id": "01p61000008sD9oAAE",
      "lastModifiedById": "00561000002AxnRAAS",
      "lastModifiedByName": "Bard BPV",
      "lastModifiedDate": "2017-12-08T13:19:51.000Z",
      "manageableState": "installed",
      "namespacePrefix": "Field_Trip",
      "type": "ApexClass"
    },
    {
      "createdById": "0054N000004DZISQA4",
      "createdByName": "Isaac Collins",
      "createdDate": "2019-08-11T18:31:29.000Z",
      "fileName": "classes/WM4SF3__UninstallClass.cls",
      "fullName": "WM4SF3__UninstallClass",
      "id": "01p4N000008m9j8QAA",
      "lastModifiedById": "0054N000004DZISQA4",
      "lastModifiedByName": "Isaac Collins",
      "lastModifiedDate": "2019-08-11T18:31:29.000Z",
      "manageableState": "installed",
      "namespacePrefix": "WM4SF3",
      "type": "ApexClass"
    },
    {
      "createdById": "0054N000004DZISQA4",
      "createdByName": "Isaac Collins",
      "createdDate": "2019-08-11T18:31:29.000Z",
      "fileName": "classes/WM4SF3__WalkMeUtils.cls",
      "fullName": "WM4SF3__WalkMeUtils",
      "id": "01p4N000008m9jBQAQ",
      "lastModifiedById": "0054N000004DZISQA4",
      "lastModifiedByName": "Isaac Collins",
      "lastModifiedDate": "2019-08-11T18:31:29.000Z",
      "manageableState": "installed",
      "namespacePrefix": "WM4SF3",
      "type": "ApexClass"
    },
    {
      "createdById": "0054N000004DZISQA4",
      "createdByName": "Isaac Collins",
      "createdDate": "2019-08-11T18:31:28.000Z",
      "fileName": "classes/WM4SF3__DAL_WalkMeExtension.cls",
      "fullName": "WM4SF3__DAL_WalkMeExtension",
      "id": "01p4N000008m9j0QAA",
      "lastModifiedById": "0054N000004DZISQA4",
      "lastModifiedByName": "Isaac Collins",
      "lastModifiedDate": "2019-08-11T18:31:28.000Z",
      "manageableState": "installed",
      "namespacePrefix": "WM4SF3",
      "type": "ApexClass"
    },
    {
      "createdById": "00561000000xceNAAQ",
      "createdByName": "Automated Process",
      "createdDate": "2017-11-07T16:18:12.000Z",
      "fileName": "classes/relateiq__OrganizationInfo.cls",
      "fullName": "relateiq__OrganizationInfo",
      "id": "01p61000008ruA0AAI",
      "lastModifiedById": "00561000000xceNAAQ",
      "lastModifiedByName": "Automated Process",
      "lastModifiedDate": "2017-11-07T16:18:12.000Z",
      "manageableState": "installed",
      "namespacePrefix": "relateiq",
      "type": "ApexClass"
    },
    {
      "createdById": "00561000002apObAAI",
      "createdByName": "Virginia Young",
      "createdDate": "2018-08-07T17:08:07.000Z",
      "fileName": "classes/CampaignCloneControllerTest.cls",
      "fullName": "CampaignCloneControllerTest",
      "id": "01p6100000998AzAAI",
      "lastModifiedById": "00561000002apObAAI",
      "lastModifiedByName": "Virginia Young",
      "lastModifiedDate": "2018-08-07T17:08:07.000Z",
      "manageableState": "unmanaged",
      "type": "ApexClass"
    },
    {
      "createdById": "00561000002AxnRAAS",
      "createdByName": "Bard BPV",
      "createdDate": "2019-01-31T15:48:25.000Z",
      "fileName": "classes/PerDaySalesUtil.cls",
      "fullName": "PerDaySalesUtil",
      "id": "01p61000009Cxu1AAC",
      "lastModifiedById": "0052h000000kXf9AAE",
      "lastModifiedByName": "Arkus Developer",
      "lastModifiedDate": "2020-10-19T16:55:09.000Z",
      "manageableState": "unmanaged",
      "type": "ApexClass"
    },
    {
      "createdById": "00561000002apObAAI",
      "createdByName": "Virginia Young",
      "createdDate": "2018-08-07T17:08:07.000Z",
      "fileName": "classes/CampaignExceptionData.cls",
      "fullName": "CampaignExceptionData",
      "id": "01p6100000998B2AAI",
      "lastModifiedById": "00561000002apObAAI",
      "lastModifiedByName": "Virginia Young",
      "lastModifiedDate": "2018-08-07T17:08:07.000Z",
      "manageableState": "unmanaged",
      "type": "ApexClass"
    },
    {
      "createdById": "00561000002apObAAI",
      "createdByName": "Virginia Young",
      "createdDate": "2018-08-07T17:08:08.000Z",
      "fileName": "classes/CampaignProctorFeeController.cls",
      "fullName": "CampaignProctorFeeController",
      "id": "01p6100000998BVAAY",
      "lastModifiedById": "00561000002apObAAI",
      "lastModifiedByName": "Virginia Young",
      "lastModifiedDate": "2018-08-07T17:08:08.000Z",
      "manageableState": "unmanaged",
      "type": "ApexClass"
    },
    {
      "createdById": "0054N000004DZISQA4",
      "createdByName": "Isaac Collins",
      "createdDate": "2019-08-11T18:31:29.000Z",
      "fileName": "classes/WM4SF3__TestF_walkMe_group_ext.cls",
      "fullName": "WM4SF3__TestF_walkMe_group_ext",
      "id": "01p4N000008m9j7QAA",
      "lastModifiedById": "0054N000004DZISQA4",
      "lastModifiedByName": "Isaac Collins",
      "lastModifiedDate": "2019-08-11T18:31:29.000Z",
      "manageableState": "installed",
      "namespacePrefix": "WM4SF3",
      "type": "ApexClass"
    },
    {
      "createdById": "00561000002AxnRAAS",
      "createdByName": "Bard BPV",
      "createdDate": "2017-12-22T20:32:40.000Z",
      "fileName": "classes/CaseUtilsTest.cls",
      "fullName": "CaseUtilsTest",
      "id": "01p61000008sIP2AAM",
      "lastModifiedById": "00561000002AxnRAAS",
      "lastModifiedByName": "Bard BPV",
      "lastModifiedDate": "2017-12-22T20:32:40.000Z",
      "manageableState": "unmanaged",
      "type": "ApexClass"
    },
    {
      "createdById": "00561000002apObAAI",
      "createdByName": "Virginia Young",
      "createdDate": "2018-08-07T17:08:08.000Z",
      "fileName": "classes/CampaignUserTriggerHandler.cls",
      "fullName": "CampaignUserTriggerHandler",
      "id": "01p6100000998BgAAI",
      "lastModifiedById": "00561000002apObAAI",
      "lastModifiedByName": "Virginia Young",
      "lastModifiedDate": "2018-08-07T17:08:08.000Z",
      "manageableState": "unmanaged",
      "type": "ApexClass"
    },
    {
      "createdById": "00561000002apObAAI",
      "createdByName": "Virginia Young",
      "createdDate": "2018-08-07T17:08:07.000Z",
      "fileName": "classes/CampaignExpensesControllerTest.cls",
      "fullName": "CampaignExpensesControllerTest",
      "id": "01p6100000998B4AAI",
      "lastModifiedById": "00561000002apObAAI",
      "lastModifiedByName": "Virginia Young",
      "lastModifiedDate": "2018-08-07T17:08:07.000Z",
      "manageableState": "unmanaged",
      "type": "ApexClass"
    },
    {
      "createdById": "00561000002apObAAI",
      "createdByName": "Virginia Young",
      "createdDate": "2018-08-07T17:08:08.000Z",
      "fileName": "classes/CampaignTransportationAttendeeDTO.cls",
      "fullName": "CampaignTransportationAttendeeDTO",
      "id": "01p6100000998BZAAY",
      "lastModifiedById": "00561000002apObAAI",
      "lastModifiedByName": "Virginia Young",
      "lastModifiedDate": "2018-08-07T17:08:08.000Z",
      "manageableState": "unmanaged",
      "type": "ApexClass"
    },
    {
      "createdById": "00561000002apObAAI",
      "createdByName": "Virginia Young",
      "createdDate": "2018-08-07T17:08:08.000Z",
      "fileName": "classes/CampaignLedgerController.cls",
      "fullName": "CampaignLedgerController",
      "id": "01p6100000998BKAAY",
      "lastModifiedById": "00561000002apObAAI",
      "lastModifiedByName": "Virginia Young",
      "lastModifiedDate": "2018-08-07T17:08:08.000Z",
      "manageableState": "unmanaged",
      "type": "ApexClass"
    },
    {
      "createdById": "00561000002AxnRAAS",
      "createdByName": "Bard BPV",
      "createdDate": "2019-01-31T15:48:25.000Z",
      "fileName": "classes/PerDaySalesController.cls",
      "fullName": "PerDaySalesController",
      "id": "01p61000009CxtyAAC",
      "lastModifiedById": "0052h000000kXf9AAE",
      "lastModifiedByName": "Arkus Developer",
      "lastModifiedDate": "2020-09-23T18:56:58.000Z",
      "manageableState": "unmanaged",
      "type": "ApexClass"
    },
    {
      "createdById": "0052h000000kXf9AAE",
      "createdByName": "Arkus Developer",
      "createdDate": "2020-05-18T18:00:30.000Z",
      "fileName": "classes/CompetitorUtils.cls",
      "fullName": "CompetitorUtils",
      "id": "01p2h000000KkRnAAK",
      "lastModifiedById": "0052h000000kXf9AAE",
      "lastModifiedByName": "Arkus Developer",
      "lastModifiedDate": "2020-05-20T13:06:40.000Z",
      "manageableState": "unmanaged",
      "type": "ApexClass"
    },
    {
      "createdById": "00561000002apObAAI",
      "createdByName": "Virginia Young",
      "createdDate": "2018-08-07T17:08:08.000Z",
      "fileName": "classes/CampaignTriggerUtil.cls",
      "fullName": "CampaignTriggerUtil",
      "id": "01p6100000998BfAAI",
      "lastModifiedById": "00561000002apObAAI",
      "lastModifiedByName": "Virginia Young",
      "lastModifiedDate": "2018-08-07T17:08:08.000Z",
      "manageableState": "unmanaged",
      "type": "ApexClass"
    },
    {
      "createdById": "00561000002apObAAI",
      "createdByName": "Virginia Young",
      "createdDate": "2018-08-07T17:08:07.000Z",
      "fileName": "classes/CampaignHotelAttendeeDTO.cls",
      "fullName": "CampaignHotelAttendeeDTO",
      "id": "01p6100000998BAAAY",
      "lastModifiedById": "00561000002apObAAI",
      "lastModifiedByName": "Virginia Young",
      "lastModifiedDate": "2018-08-07T17:08:07.000Z",
      "manageableState": "unmanaged",
      "type": "ApexClass"
    },
    {
      "createdById": "00561000002AxnRAAS",
      "createdByName": "Bard BPV",
      "createdDate": "2018-06-29T16:03:57.000Z",
      "fileName": "classes/PicklistUtil.cls",
      "fullName": "PicklistUtil",
      "id": "01p610000098xSAAAY",
      "lastModifiedById": "00561000002apObAAI",
      "lastModifiedByName": "Virginia Young",
      "lastModifiedDate": "2018-08-07T17:08:09.000Z",
      "manageableState": "unmanaged",
      "type": "ApexClass"
    },
    {
      "createdById": "00561000002AxnRAAS",
      "createdByName": "Bard BPV",
      "createdDate": "2018-06-29T16:03:57.000Z",
      "fileName": "classes/SearchParamViewModel.cls",
      "fullName": "SearchParamViewModel",
      "id": "01p610000098xSBAAY",
      "lastModifiedById": "00561000002apObAAI",
      "lastModifiedByName": "Virginia Young",
      "lastModifiedDate": "2018-08-07T17:08:09.000Z",
      "manageableState": "unmanaged",
      "type": "ApexClass"
    },
    {
      "createdById": "00561000002AxnRAAS",
      "createdByName": "Bard BPV",
      "createdDate": "2017-12-22T20:32:40.000Z",
      "fileName": "classes/ProductUsedUtilsTest.cls",
      "fullName": "ProductUsedUtilsTest",
      "id": "01p61000008sIP4AAM",
      "lastModifiedById": "00561000002AxnRAAS",
      "lastModifiedByName": "Bard BPV",
      "lastModifiedDate": "2017-12-22T20:32:40.000Z",
      "manageableState": "unmanaged",
      "type": "ApexClass"
    },
    {
      "createdById": "00561000002AxnRAAS",
      "createdByName": "Bard BPV",
      "createdDate": "2019-12-05T12:46:50.000Z",
      "fileName": "classes/IRSASalesSummaryController.cls",
      "fullName": "IRSASalesSummaryController",
      "id": "01p4N000008mIbbQAE",
      "lastModifiedById": "0052h000000kXf9AAE",
      "lastModifiedByName": "Arkus Developer",
      "lastModifiedDate": "2020-10-12T14:58:08.000Z",
      "manageableState": "unmanaged",
      "type": "ApexClass"
    },
    {
      "createdById": "00561000002AxnRAAS",
      "createdByName": "Bard BPV",
      "createdDate": "2018-06-29T16:03:57.000Z",
      "fileName": "classes/KOLSearchControllerTest.cls",
      "fullName": "KOLSearchControllerTest",
      "id": "01p610000098xS7AAI",
      "lastModifiedById": "00561000002apObAAI",
      "lastModifiedByName": "Virginia Young",
      "lastModifiedDate": "2018-08-07T17:08:09.000Z",
      "manageableState": "unmanaged",
      "type": "ApexClass"
    },
    {
      "createdById": "00561000002apObAAI",
      "createdByName": "Virginia Young",
      "createdDate": "2018-08-07T17:08:08.000Z",
      "fileName": "classes/CampaignProctorFeeTriggerHandler.cls",
      "fullName": "CampaignProctorFeeTriggerHandler",
      "id": "01p6100000998BYAAY",
      "lastModifiedById": "00561000002apObAAI",
      "lastModifiedByName": "Virginia Young",
      "lastModifiedDate": "2018-08-07T17:08:08.000Z",
      "manageableState": "unmanaged",
      "type": "ApexClass"
    },
    {
      "createdById": "0054N000004DZISQA4",
      "createdByName": "Isaac Collins",
      "createdDate": "2019-08-11T18:31:29.000Z",
      "fileName": "classes/WM4SF3__TEST_WalkMeUtils.cls",
      "fullName": "WM4SF3__TEST_WalkMeUtils",
      "id": "01p4N000008m9j4QAA",
      "lastModifiedById": "0054N000004DZISQA4",
      "lastModifiedByName": "Isaac Collins",
      "lastModifiedDate": "2019-08-11T18:31:29.000Z",
      "manageableState": "installed",
      "namespacePrefix": "WM4SF3",
      "type": "ApexClass"
    },
    {
      "createdById": "00561000002apObAAI",
      "createdByName": "Virginia Young",
      "createdDate": "2018-08-07T17:08:09.000Z",
      "fileName": "classes/UpcomingCoursesController.cls",
      "fullName": "UpcomingCoursesController",
      "id": "01p6100000998BmAAI",
      "lastModifiedById": "00561000002AxnRAAS",
      "lastModifiedByName": "Bard BPV",
      "lastModifiedDate": "2020-03-09T13:46:58.000Z",
      "manageableState": "unmanaged",
      "type": "ApexClass"
    },
    {
      "createdById": "00561000002apObAAI",
      "createdByName": "Virginia Young",
      "createdDate": "2018-08-07T17:08:08.000Z",
      "fileName": "classes/CampaignProctorFeeDTO.cls",
      "fullName": "CampaignProctorFeeDTO",
      "id": "01p6100000998BXAAY",
      "lastModifiedById": "00561000002apObAAI",
      "lastModifiedByName": "Virginia Young",
      "lastModifiedDate": "2018-08-07T17:08:08.000Z",
      "manageableState": "unmanaged",
      "type": "ApexClass"
    },
    {
      "createdById": "00561000002apObAAI",
      "createdByName": "Virginia Young",
      "createdDate": "2018-08-07T17:08:08.000Z",
      "fileName": "classes/CampaignTriggerHandler.cls",
      "fullName": "CampaignTriggerHandler",
      "id": "01p6100000998BeAAI",
      "lastModifiedById": "00561000002apObAAI",
      "lastModifiedByName": "Virginia Young",
      "lastModifiedDate": "2018-08-07T17:08:08.000Z",
      "manageableState": "unmanaged",
      "type": "ApexClass"
    },
    {
      "createdById": "00561000002apObAAI",
      "createdByName": "Virginia Young",
      "createdDate": "2018-08-07T17:08:08.000Z",
      "fileName": "classes/CampaignProctorFeeControllerTest.cls",
      "fullName": "CampaignProctorFeeControllerTest",
      "id": "01p6100000998BWAAY",
      "lastModifiedById": "00561000002apObAAI",
      "lastModifiedByName": "Virginia Young",
      "lastModifiedDate": "2018-08-07T17:08:08.000Z",
      "manageableState": "unmanaged",
      "type": "ApexClass"
    },
    {
      "createdById": "00561000002AxnRAAS",
      "createdByName": "Bard BPV",
      "createdDate": "2019-06-20T20:48:13.000Z",
      "fileName": "classes/HolidaysUtil.cls",
      "fullName": "HolidaysUtil",
      "id": "01p4N000009LJ1hQAG",
      "lastModifiedById": "00561000002AxnRAAS",
      "lastModifiedByName": "Bard BPV",
      "lastModifiedDate": "2020-02-03T12:44:23.000Z",
      "manageableState": "unmanaged",
      "type": "ApexClass"
    },
    {
      "createdById": "00561000002AxnRAAS",
      "createdByName": "Bard BPV",
      "createdDate": "2020-03-23T13:37:28.000Z",
      "fileName": "classes/ODINGlobalFinancialWizzardController.cls",
      "fullName": "ODINGlobalFinancialWizzardController",
      "id": "01p4N000008uPYjQAM",
      "lastModifiedById": "00561000002AxnRAAS",
      "lastModifiedByName": "Bard BPV",
      "lastModifiedDate": "2020-04-16T11:20:31.000Z",
      "manageableState": "unmanaged",
      "type": "ApexClass"
    },
    {
      "createdById": "0054N000004DZISQA4",
      "createdByName": "Isaac Collins",
      "createdDate": "2019-08-11T18:31:29.000Z",
      "fileName": "classes/WM4SF3__WalkMeSfVars_segmented.cls",
      "fullName": "WM4SF3__WalkMeSfVars_segmented",
      "id": "01p4N000008m9j9QAA",
      "lastModifiedById": "0054N000004DZISQA4",
      "lastModifiedByName": "Isaac Collins",
      "lastModifiedDate": "2019-08-11T18:31:29.000Z",
      "manageableState": "installed",
      "namespacePrefix": "WM4SF3",
      "type": "ApexClass"
    },
    {
      "createdById": "0054N000004DZISQA4",
      "createdByName": "Isaac Collins",
      "createdDate": "2019-08-11T18:31:29.000Z",
      "fileName": "classes/WM4SF3__TestF_vf_WalkMeMobileSettings.cls",
      "fullName": "WM4SF3__TestF_vf_WalkMeMobileSettings",
      "id": "01p4N000008m9j5QAA",
      "lastModifiedById": "0054N000004DZISQA4",
      "lastModifiedByName": "Isaac Collins",
      "lastModifiedDate": "2019-08-11T18:31:29.000Z",
      "manageableState": "installed",
      "namespacePrefix": "WM4SF3",
      "type": "ApexClass"
    },
    {
      "createdById": "00561000002apObAAI",
      "createdByName": "Virginia Young",
      "createdDate": "2018-08-07T17:08:07.000Z",
      "fileName": "classes/ApostleTechLookupControllerTest.cls",
      "fullName": "ApostleTechLookupControllerTest",
      "id": "01p6100000998AuAAI",
      "lastModifiedById": "00561000002AxnRAAS",
      "lastModifiedByName": "Bard BPV",
      "lastModifiedDate": "2020-03-09T13:46:58.000Z",
      "manageableState": "unmanaged",
      "type": "ApexClass"
    },
    {
      "createdById": "00561000002AxnRAAS",
      "createdByName": "Bard BPV",
      "createdDate": "2020-05-06T21:30:32.000Z",
      "fileName": "classes/ODINReportCreatorController.cls",
      "fullName": "ODINReportCreatorController",
      "id": "01p4N0000090xnjQAA",
      "lastModifiedById": "00561000002AxnRAAS",
      "lastModifiedByName": "Bard BPV",
      "lastModifiedDate": "2020-05-07T15:45:29.000Z",
      "manageableState": "unmanaged",
      "type": "ApexClass"
    },
    {
      "createdById": "00561000002apObAAI",
      "createdByName": "Virginia Young",
      "createdDate": "2018-08-07T17:08:09.000Z",
      "fileName": "classes/TriggerHandler.cls",
      "fullName": "TriggerHandler",
      "id": "01p6100000998BlAAI",
      "lastModifiedById": "00561000002apObAAI",
      "lastModifiedByName": "Virginia Young",
      "lastModifiedDate": "2018-08-07T17:08:09.000Z",
      "manageableState": "unmanaged",
      "type": "ApexClass"
    },
    {
      "createdById": "00561000002apObAAI",
      "createdByName": "Virginia Young",
      "createdDate": "2018-08-07T17:08:09.000Z",
      "fileName": "classes/HCPReportControllerTest.cls",
      "fullName": "HCPReportControllerTest",
      "id": "01p6100000998BkAAI",
      "lastModifiedById": "00561000002VHKTAA4",
      "lastModifiedByName": "justin brooks",
      "lastModifiedDate": "2018-08-10T16:08:28.000Z",
      "manageableState": "unmanaged",
      "type": "ApexClass"
    },
    {
      "createdById": "00561000002apObAAI",
      "createdByName": "Virginia Young",
      "createdDate": "2018-08-07T17:08:07.000Z",
      "fileName": "classes/CampaignFlightDTO.cls",
      "fullName": "CampaignFlightDTO",
      "id": "01p6100000998B7AAI",
      "lastModifiedById": "00561000002apObAAI",
      "lastModifiedByName": "Virginia Young",
      "lastModifiedDate": "2018-08-07T17:08:07.000Z",
      "manageableState": "unmanaged",
      "type": "ApexClass"
    },
    {
      "createdById": "00561000002apObAAI",
      "createdByName": "Virginia Young",
      "createdDate": "2018-08-07T17:08:08.000Z",
      "fileName": "classes/CampaignHotelDTO.cls",
      "fullName": "CampaignHotelDTO",
      "id": "01p6100000998BDAAY",
      "lastModifiedById": "00561000002apObAAI",
      "lastModifiedByName": "Virginia Young",
      "lastModifiedDate": "2018-08-07T17:08:08.000Z",
      "manageableState": "unmanaged",
      "type": "ApexClass"
    },
    {
      "createdById": "00561000002apObAAI",
      "createdByName": "Virginia Young",
      "createdDate": "2018-08-07T17:08:08.000Z",
      "fileName": "classes/CampaignMemberTriggerHandler.cls",
      "fullName": "CampaignMemberTriggerHandler",
      "id": "01p6100000998BUAAY",
      "lastModifiedById": "00561000002VHKTAA4",
      "lastModifiedByName": "justin brooks",
      "lastModifiedDate": "2019-01-02T23:06:59.000Z",
      "manageableState": "unmanaged",
      "type": "ApexClass"
    },
    {
      "createdById": "00561000002AxnRAAS",
      "createdByName": "Bard BPV",
      "createdDate": "2018-12-20T17:49:51.000Z",
      "fileName": "classes/CMTD__ERL_RTSelector_Test.cls",
      "fullName": "CMTD__ERL_RTSelector_Test",
      "id": "01p61000009PWCzAAO",
      "lastModifiedById": "00561000002AxnRAAS",
      "lastModifiedByName": "Bard BPV",
      "lastModifiedDate": "2018-12-20T17:49:51.000Z",
      "manageableState": "installed",
      "namespacePrefix": "CMTD",
      "type": "ApexClass"
    },
    {
      "createdById": "00561000002apObAAI",
      "createdByName": "Virginia Young",
      "createdDate": "2018-08-07T17:08:07.000Z",
      "fileName": "classes/CampaignAttendeeDocumentDTO.cls",
      "fullName": "CampaignAttendeeDocumentDTO",
      "id": "01p6100000998AxAAI",
      "lastModifiedById": "00561000002apObAAI",
      "lastModifiedByName": "Virginia Young",
      "lastModifiedDate": "2018-08-07T17:08:07.000Z",
      "manageableState": "unmanaged",
      "type": "ApexClass"
    },
    {
      "createdById": "00561000002apObAAI",
      "createdByName": "Virginia Young",
      "createdDate": "2018-08-07T17:08:07.000Z",
      "fileName": "classes/CampaignHotelController.cls",
      "fullName": "CampaignHotelController",
      "id": "01p6100000998BBAAY",
      "lastModifiedById": "00561000002apObAAI",
      "lastModifiedByName": "Virginia Young",
      "lastModifiedDate": "2018-08-07T17:08:07.000Z",
      "manageableState": "unmanaged",
      "type": "ApexClass"
    },
    {
      "createdById": "00561000002AxnRAAS",
      "createdByName": "Bard BPV",
      "createdDate": "2019-01-31T15:48:24.000Z",
      "fileName": "classes/CustomerAndProductGapController.cls",
      "fullName": "CustomerAndProductGapController",
      "id": "01p61000009CxttAAC",
      "lastModifiedById": "0052h000000kXf9AAE",
      "lastModifiedByName": "Arkus Developer",
      "lastModifiedDate": "2020-09-21T19:30:40.000Z",
      "manageableState": "unmanaged",
      "type": "ApexClass"
    },
    {
      "createdById": "00561000002apObAAI",
      "createdByName": "Virginia Young",
      "createdDate": "2018-08-07T17:08:07.000Z",
      "fileName": "classes/CampaignDocumentTriggerHandler.cls",
      "fullName": "CampaignDocumentTriggerHandler",
      "id": "01p6100000998B1AAI",
      "lastModifiedById": "00561000002apObAAI",
      "lastModifiedByName": "Virginia Young",
      "lastModifiedDate": "2018-08-07T17:08:07.000Z",
      "manageableState": "unmanaged",
      "type": "ApexClass"
    },
    {
      "createdById": "00561000002AxnRAAS",
      "createdByName": "Bard BPV",
      "createdDate": "2019-12-03T16:47:05.000Z",
      "fileName": "classes/SalesDataEmailNotificationBatch.cls",
      "fullName": "SalesDataEmailNotificationBatch",
      "id": "01p4N000008mIWRQA2",
      "lastModifiedById": "00561000002AxnRAAS",
      "lastModifiedByName": "Bard BPV",
      "lastModifiedDate": "2019-12-03T16:47:05.000Z",
      "manageableState": "unmanaged",
      "type": "ApexClass"
    },
    {
      "createdById": "00561000002apObAAI",
      "createdByName": "Virginia Young",
      "createdDate": "2018-08-07T17:08:08.000Z",
      "fileName": "classes/CampaignMemberControllerTest.cls",
      "fullName": "CampaignMemberControllerTest",
      "id": "01p6100000998BTAAY",
      "lastModifiedById": "00561000002AxnRAAS",
      "lastModifiedByName": "Bard BPV",
      "lastModifiedDate": "2020-03-09T13:46:58.000Z",
      "manageableState": "unmanaged",
      "type": "ApexClass"
    },
    {
      "createdById": "00561000002AxnRAAS",
      "createdByName": "Bard BPV",
      "createdDate": "2018-06-29T16:03:57.000Z",
      "fileName": "classes/KOLSearchController.cls",
      "fullName": "KOLSearchController",
      "id": "01p610000098xS6AAI",
      "lastModifiedById": "00561000002apObAAI",
      "lastModifiedByName": "Virginia Young",
      "lastModifiedDate": "2018-08-07T17:08:09.000Z",
      "manageableState": "unmanaged",
      "type": "ApexClass"
    },
    {
      "createdById": "00561000002VHKTAA4",
      "createdByName": "justin brooks",
      "createdDate": "2018-11-08T04:55:01.000Z",
      "fileName": "classes/DMManagerEmailUpdate_Test.cls",
      "fullName": "DMManagerEmailUpdate_Test",
      "id": "01p61000009PSoWAAW",
      "lastModifiedById": "00561000002AxnRAAS",
      "lastModifiedByName": "Bard BPV",
      "lastModifiedDate": "2020-03-09T13:46:58.000Z",
      "manageableState": "unmanaged",
      "type": "ApexClass"
    },
    {
      "createdById": "00561000002AxnRAAS",
      "createdByName": "Bard BPV",
      "createdDate": "2018-06-29T16:03:57.000Z",
      "fileName": "classes/ContractDTO.cls",
      "fullName": "ContractDTO",
      "id": "01p610000098xS4AAI",
      "lastModifiedById": "00561000002apObAAI",
      "lastModifiedByName": "Virginia Young",
      "lastModifiedDate": "2018-08-07T17:08:08.000Z",
      "manageableState": "unmanaged",
      "type": "ApexClass"
    }
  ]
}
