{
  "status": 0,
  "result": [
    {
      "createdById": "00561000002apObAAI",
      "createdByName": "Virginia Young",
      "createdDate": "2018-08-07T17:07:18.000Z",
      "fileName": "aura/CampaignAttendeeDocumentDataChanged",
      "fullName": "CampaignAttendeeDocumentDataChanged",
      "id": "0Ab610000004bybCAA",
      "lastModifiedById": "00561000002apObAAI",
      "lastModifiedByName": "Virginia Young",
      "lastModifiedDate": "2018-08-07T17:07:26.000Z",
      "manageableState": "unmanaged",
      "type": "AuraDefinitionBundle"
    },
    {
      "createdById": "00561000002apObAAI",
      "createdByName": "Virginia Young",
      "createdDate": "2018-08-07T17:07:17.000Z",
      "fileName": "aura/CampaignLedger",
      "fullName": "CampaignLedger",
      "id": "0Ab610000004bxvCAA",
      "lastModifiedById": "00561000002AxnRAAS",
      "lastModifiedByName": "Bard BPV",
      "lastModifiedDate": "2020-01-10T20:36:30.000Z",
      "manageableState": "unmanaged",
      "type": "AuraDefinitionBundle"
    },
    {
      "createdById": "00561000002apObAAI",
      "createdByName": "Virginia Young",
      "createdDate": "2018-08-07T17:07:18.000Z",
      "fileName": "aura/CampaignFlightsApp",
      "fullName": "CampaignFlightsApp",
      "id": "0Ab610000004byPCAQ",
      "lastModifiedById": "00561000002apObAAI",
      "lastModifiedByName": "Virginia Young",
      "lastModifiedDate": "2018-08-07T17:08:29.000Z",
      "manageableState": "unmanaged",
      "type": "AuraDefinitionBundle"
    },
    {
      "createdById": "00561000002AxnRAAS",
      "createdByName": "Bard BPV",
      "createdDate": "2018-12-20T17:49:45.000Z",
      "fileName": "aura/CMTD__EnhancedRelatedList",
      "fullName": "CMTD__EnhancedRelatedList",
      "id": "0Ab61000000kCVGCA2",
      "lastModifiedById": "00561000002AxnRAAS",
      "lastModifiedByName": "Bard BPV",
      "lastModifiedDate": "2018-12-20T17:49:54.000Z",
      "manageableState": "installed",
      "namespacePrefix": "CMTD",
      "type": "AuraDefinitionBundle"
    },
    {
      "createdById": "00561000002apObAAI",
      "createdByName": "Virginia Young",
      "createdDate": "2018-08-07T17:07:18.000Z",
      "fileName": "aura/CampaignHotelDataChanged",
      "fullName": "CampaignHotelDataChanged",
      "id": "0Ab610000004bySCAQ",
      "lastModifiedById": "00561000002apObAAI",
      "lastModifiedByName": "Virginia Young",
      "lastModifiedDate": "2018-08-07T17:07:25.000Z",
      "manageableState": "unmanaged",
      "type": "AuraDefinitionBundle"
    },
    {
      "createdById": "00561000002AxnRAAS",
      "createdByName": "Bard BPV",
      "createdDate": "2020-03-23T13:37:08.000Z",
      "fileName": "aura/ODINHelpText",
      "fullName": "ODINHelpText",
      "id": "0Ab4N000000LZk9SAG",
      "lastModifiedById": "00561000002AxnRAAS",
      "lastModifiedByName": "Bard BPV",
      "lastModifiedDate": "2020-03-23T13:37:31.000Z",
      "manageableState": "unmanaged",
      "type": "AuraDefinitionBundle"
    },
    {
      "createdById": "00561000002apObAAI",
      "createdByName": "Virginia Young",
      "createdDate": "2018-08-07T17:07:17.000Z",
      "fileName": "aura/CampaignClone",
      "fullName": "CampaignClone",
      "id": "0Ab610000004by3CAA",
      "lastModifiedById": "00561000002VHKTAA4",
      "lastModifiedByName": "justin brooks",
      "lastModifiedDate": "2019-01-02T23:04:26.000Z",
      "manageableState": "unmanaged",
      "type": "AuraDefinitionBundle"
    },
    {
      "createdById": "00561000002apObAAI",
      "createdByName": "Virginia Young",
      "createdDate": "2018-08-07T17:07:18.000Z",
      "fileName": "aura/ConfirmUpdateCampaignMemberModalFooter",
      "fullName": "ConfirmUpdateCampaignMemberModalFooter",
      "id": "0Ab610000004bynCAA",
      "lastModifiedById": "00561000002apObAAI",
      "lastModifiedByName": "Virginia Young",
      "lastModifiedDate": "2018-08-07T17:08:32.000Z",
      "manageableState": "unmanaged",
      "type": "AuraDefinitionBundle"
    },
    {
      "createdById": "00561000002apObAAI",
      "createdByName": "Virginia Young",
      "createdDate": "2018-08-07T17:07:18.000Z",
      "fileName": "aura/CampaignMeals",
      "fullName": "CampaignMeals",
      "id": "0Ab610000004bydCAA",
      "lastModifiedById": "00561000002apObAAI",
      "lastModifiedByName": "Virginia Young",
      "lastModifiedDate": "2018-08-07T17:08:31.000Z",
      "manageableState": "unmanaged",
      "type": "AuraDefinitionBundle"
    },
    {
      "createdById": "00561000002apObAAI",
      "createdByName": "Virginia Young",
      "createdDate": "2018-08-07T17:07:18.000Z",
      "fileName": "aura/ConfirmDeleteCampaignIncidentalModalFooter",
      "fullName": "ConfirmDeleteCampaignIncidentalModalFooter",
      "id": "0Ab610000004byXCAQ",
      "lastModifiedById": "00561000002apObAAI",
      "lastModifiedByName": "Virginia Young",
      "lastModifiedDate": "2018-08-07T17:08:30.000Z",
      "manageableState": "unmanaged",
      "type": "AuraDefinitionBundle"
    },
    {
      "createdById": "00561000002apObAAI",
      "createdByName": "Virginia Young",
      "createdDate": "2018-08-07T17:07:17.000Z",
      "fileName": "aura/ConfirmDeleteCampaignHotelModalFooter",
      "fullName": "ConfirmDeleteCampaignHotelModalFooter",
      "id": "0Ab610000004by1CAA",
      "lastModifiedById": "00561000002apObAAI",
      "lastModifiedByName": "Virginia Young",
      "lastModifiedDate": "2018-08-07T17:08:25.000Z",
      "manageableState": "unmanaged",
      "type": "AuraDefinitionBundle"
    },
    {
      "createdById": "00561000002apObAAI",
      "createdByName": "Virginia Young",
      "createdDate": "2018-08-07T17:07:18.000Z",
      "fileName": "aura/CampaignTransportationDataChanged",
      "fullName": "CampaignTransportationDataChanged",
      "id": "0Ab610000004byUCAQ",
      "lastModifiedById": "00561000002apObAAI",
      "lastModifiedByName": "Virginia Young",
      "lastModifiedDate": "2018-08-07T17:07:25.000Z",
      "manageableState": "unmanaged",
      "type": "AuraDefinitionBundle"
    },
    {
      "createdById": "0054N000004DZISQA4",
      "createdByName": "Isaac Collins",
      "createdDate": "2019-08-11T18:31:24.000Z",
      "fileName": "aura/WM4SF3__WalkMe_Install_Call_To_Action",
      "fullName": "WM4SF3__WalkMe_Install_Call_To_Action",
      "id": "0Ab4N000000TaOdSAK",
      "lastModifiedById": "0054N000004DZISQA4",
      "lastModifiedByName": "Isaac Collins",
      "lastModifiedDate": "2019-08-11T18:31:42.000Z",
      "manageableState": "installed",
      "namespacePrefix": "WM4SF3",
      "type": "AuraDefinitionBundle"
    },
    {
      "createdById": "00561000002apObAAI",
      "createdByName": "Virginia Young",
      "createdDate": "2018-08-07T17:07:18.000Z",
      "fileName": "aura/ApostleTechLookupApp",
      "fullName": "ApostleTechLookupApp",
      "id": "0Ab610000004byhCAA",
      "lastModifiedById": "00561000002apObAAI",
      "lastModifiedByName": "Virginia Young",
      "lastModifiedDate": "2018-08-07T17:08:31.000Z",
      "manageableState": "unmanaged",
      "type": "AuraDefinitionBundle"
    },
    {
      "createdById": "00561000002apObAAI",
      "createdByName": "Virginia Young",
      "createdDate": "2018-08-07T17:07:18.000Z",
      "fileName": "aura/CampaignFlightModalContent",
      "fullName": "CampaignFlightModalContent",
      "id": "0Ab610000004byaCAA",
      "lastModifiedById": "00561000002VHKTAA4",
      "lastModifiedByName": "justin brooks",
      "lastModifiedDate": "2019-01-02T23:07:01.000Z",
      "manageableState": "unmanaged",
      "type": "AuraDefinitionBundle"
    },
    {
      "createdById": "00561000002apObAAI",
      "createdByName": "Virginia Young",
      "createdDate": "2018-08-07T17:07:17.000Z",
      "fileName": "aura/CampaignProctorFeeDataChanged",
      "fullName": "CampaignProctorFeeDataChanged",
      "id": "0Ab610000004byFCAQ",
      "lastModifiedById": "00561000002apObAAI",
      "lastModifiedByName": "Virginia Young",
      "lastModifiedDate": "2018-08-07T17:07:23.000Z",
      "manageableState": "unmanaged",
      "type": "AuraDefinitionBundle"
    },
    {
      "createdById": "00561000002apObAAI",
      "createdByName": "Virginia Young",
      "createdDate": "2018-08-07T17:07:17.000Z",
      "fileName": "aura/CampaignCloneApp",
      "fullName": "CampaignCloneApp",
      "id": "0Ab610000004bxzCAA",
      "lastModifiedById": "00561000002apObAAI",
      "lastModifiedByName": "Virginia Young",
      "lastModifiedDate": "2018-08-07T17:08:25.000Z",
      "manageableState": "unmanaged",
      "type": "AuraDefinitionBundle"
    },
    {
      "createdById": "00561000002AxnRAAS",
      "createdByName": "Bard BPV",
      "createdDate": "2018-12-20T17:51:09.000Z",
      "fileName": "aura/CustomEnhancedRelatedList",
      "fullName": "CustomEnhancedRelatedList",
      "id": "0Ab61000000kCVPCA2",
      "lastModifiedById": "00561000002AxnRAAS",
      "lastModifiedByName": "Bard BPV",
      "lastModifiedDate": "2019-06-05T10:40:06.000Z",
      "manageableState": "unmanaged",
      "type": "AuraDefinitionBundle"
    },
    {
      "createdById": "00561000002apObAAI",
      "createdByName": "Virginia Young",
      "createdDate": "2018-08-07T17:07:18.000Z",
      "fileName": "aura/CampaignAttendeeDocumentModalContent",
      "fullName": "CampaignAttendeeDocumentModalContent",
      "id": "0Ab610000004bymCAA",
      "lastModifiedById": "00561000002apObAAI",
      "lastModifiedByName": "Virginia Young",
      "lastModifiedDate": "2018-08-07T17:08:32.000Z",
      "manageableState": "unmanaged",
      "type": "AuraDefinitionBundle"
    },
    {
      "createdById": "00561000002apObAAI",
      "createdByName": "Virginia Young",
      "createdDate": "2018-08-07T17:07:17.000Z",
      "fileName": "aura/CampaignTransportationModalContent",
      "fullName": "CampaignTransportationModalContent",
      "id": "0Ab610000004by4CAA",
      "lastModifiedById": "00561000002VHKTAA4",
      "lastModifiedByName": "justin brooks",
      "lastModifiedDate": "2018-08-10T16:08:30.000Z",
      "manageableState": "unmanaged",
      "type": "AuraDefinitionBundle"
    },
    {
      "createdById": "00561000002AxnRAAS",
      "createdByName": "Bard BPV",
      "createdDate": "2020-03-23T13:37:08.000Z",
      "fileName": "aura/ODINFinancialProductForm",
      "fullName": "ODINFinancialProductForm",
      "id": "0Ab4N000000LZk3SAG",
      "lastModifiedById": "00561000002AxnRAAS",
      "lastModifiedByName": "Bard BPV",
      "lastModifiedDate": "2020-03-23T13:37:32.000Z",
      "manageableState": "unmanaged",
      "type": "AuraDefinitionBundle"
    },
    {
      "createdById": "00561000002AxnRAAS",
      "createdByName": "Bard BPV",
      "createdDate": "2020-03-23T13:37:08.000Z",
      "fileName": "aura/ODINFinancialCountrySelector",
      "fullName": "ODINFinancialCountrySelector",
      "id": "0Ab4N000000LZkCSAW",
      "lastModifiedById": "00561000002AxnRAAS",
      "lastModifiedByName": "Bard BPV",
      "lastModifiedDate": "2020-03-23T13:37:34.000Z",
      "manageableState": "unmanaged",
      "type": "AuraDefinitionBundle"
    },
    {
      "createdById": "00561000002apObAAI",
      "createdByName": "Virginia Young",
      "createdDate": "2018-08-07T17:07:17.000Z",
      "fileName": "aura/ConfirmDeleteCampaignTransportationModalFooter",
      "fullName": "ConfirmDeleteCampaignTransportationModalFooter",
      "id": "0Ab610000004byKCAQ",
      "lastModifiedById": "00561000002apObAAI",
      "lastModifiedByName": "Virginia Young",
      "lastModifiedDate": "2018-08-07T17:08:28.000Z",
      "manageableState": "unmanaged",
      "type": "AuraDefinitionBundle"
    },
    {
      "createdById": "00561000002AxnRAAS",
      "createdByName": "Bard BPV",
      "createdDate": "2019-01-31T15:48:18.000Z",
      "fileName": "aura/PDS_UserSelector",
      "fullName": "PDS_UserSelector",
      "id": "0Ab61000000g0kOCAQ",
      "lastModifiedById": "0052h000000kXf9AAE",
      "lastModifiedByName": "Arkus Developer",
      "lastModifiedDate": "2020-10-16T11:57:57.000Z",
      "manageableState": "unmanaged",
      "type": "AuraDefinitionBundle"
    },
    {
      "createdById": "00561000002apObAAI",
      "createdByName": "Virginia Young",
      "createdDate": "2018-08-07T17:07:17.000Z",
      "fileName": "aura/CampaignProctorFeeModalContent",
      "fullName": "CampaignProctorFeeModalContent",
      "id": "0Ab610000004bxyCAA",
      "lastModifiedById": "00561000002VHKTAA4",
      "lastModifiedByName": "justin brooks",
      "lastModifiedDate": "2019-01-02T23:07:02.000Z",
      "manageableState": "unmanaged",
      "type": "AuraDefinitionBundle"
    },
    {
      "createdById": "00561000002apObAAI",
      "createdByName": "Virginia Young",
      "createdDate": "2018-08-07T17:07:18.000Z",
      "fileName": "aura/CampaignTransportationsApp",
      "fullName": "CampaignTransportationsApp",
      "id": "0Ab610000004byeCAA",
      "lastModifiedById": "00561000002apObAAI",
      "lastModifiedByName": "Virginia Young",
      "lastModifiedDate": "2018-08-07T17:08:31.000Z",
      "manageableState": "unmanaged",
      "type": "AuraDefinitionBundle"
    },
    {
      "createdById": "00561000002AxnRAAS",
      "createdByName": "Bard BPV",
      "createdDate": "2018-12-20T17:49:45.000Z",
      "fileName": "aura/CMTD__ERL_Tile",
      "fullName": "CMTD__ERL_Tile",
      "id": "0Ab61000000kCVKCA2",
      "lastModifiedById": "00561000002AxnRAAS",
      "lastModifiedByName": "Bard BPV",
      "lastModifiedDate": "2018-12-20T17:49:54.000Z",
      "manageableState": "installed",
      "namespacePrefix": "CMTD",
      "type": "AuraDefinitionBundle"
    },
    {
      "createdById": "00561000002apObAAI",
      "createdByName": "Virginia Young",
      "createdDate": "2018-08-07T17:07:17.000Z",
      "fileName": "aura/CampaignMemberDeleted",
      "fullName": "CampaignMemberDeleted",
      "id": "0Ab610000004byHCAQ",
      "lastModifiedById": "00561000002apObAAI",
      "lastModifiedByName": "Virginia Young",
      "lastModifiedDate": "2018-08-07T17:07:23.000Z",
      "manageableState": "unmanaged",
      "type": "AuraDefinitionBundle"
    },
    {
      "createdById": "00561000002AxnRAAS",
      "createdByName": "Bard BPV",
      "createdDate": "2020-03-23T13:37:08.000Z",
      "fileName": "aura/ODINGlobalFinancialWizzard",
      "fullName": "ODINGlobalFinancialWizzard",
      "id": "0Ab4N000000LZkFSAW",
      "lastModifiedById": "00561000002AxnRAAS",
      "lastModifiedByName": "Bard BPV",
      "lastModifiedDate": "2020-04-13T15:02:07.000Z",
      "manageableState": "unmanaged",
      "type": "AuraDefinitionBundle"
    },
    {
      "createdById": "00561000002apObAAI",
      "createdByName": "Virginia Young",
      "createdDate": "2018-08-07T17:07:17.000Z",
      "fileName": "aura/CampaignMealsApp",
      "fullName": "CampaignMealsApp",
      "id": "0Ab610000004byBCAQ",
      "lastModifiedById": "00561000002apObAAI",
      "lastModifiedByName": "Virginia Young",
      "lastModifiedDate": "2018-08-07T17:08:27.000Z",
      "manageableState": "unmanaged",
      "type": "AuraDefinitionBundle"
    },
    {
      "createdById": "00561000002AxnRAAS",
      "createdByName": "Bard BPV",
      "createdDate": "2019-01-31T15:48:18.000Z",
      "fileName": "aura/PerDaySales",
      "fullName": "PerDaySales",
      "id": "0Ab61000000g0kPCAQ",
      "lastModifiedById": "0052h000000kXf9AAE",
      "lastModifiedByName": "Arkus Developer",
      "lastModifiedDate": "2020-09-23T18:25:58.000Z",
      "manageableState": "unmanaged",
      "type": "AuraDefinitionBundle"
    },
    {
      "createdById": "00561000002apObAAI",
      "createdByName": "Virginia Young",
      "createdDate": "2018-08-07T17:07:17.000Z",
      "fileName": "aura/CampaignIncidentalsApp",
      "fullName": "CampaignIncidentalsApp",
      "id": "0Ab610000004byJCAQ",
      "lastModifiedById": "00561000002apObAAI",
      "lastModifiedByName": "Virginia Young",
      "lastModifiedDate": "2018-08-07T17:08:28.000Z",
      "manageableState": "unmanaged",
      "type": "AuraDefinitionBundle"
    },
    {
      "createdById": "00561000002AxnRAAS",
      "createdByName": "Bard BPV",
      "createdDate": "2020-03-23T13:37:08.000Z",
      "fileName": "aura/ODINFinancialSelected",
      "fullName": "ODINFinancialSelected",
      "id": "0Ab4N000000LZkESAW",
      "lastModifiedById": "00561000002AxnRAAS",
      "lastModifiedByName": "Bard BPV",
      "lastModifiedDate": "2020-03-23T13:37:33.000Z",
      "manageableState": "unmanaged",
      "type": "AuraDefinitionBundle"
    },
    {
      "createdById": "00561000002AxnRAAS",
      "createdByName": "Bard BPV",
      "createdDate": "2017-07-21T15:32:08.000Z",
      "fileName": "aura/mytaskslabs__MyTasksComponent",
      "fullName": "mytaskslabs__MyTasksComponent",
      "id": "0Ab610000000JsACAU",
      "lastModifiedById": "00561000002AxnRAAS",
      "lastModifiedByName": "Bard BPV",
      "lastModifiedDate": "2017-07-21T15:32:08.000Z",
      "manageableState": "installed",
      "namespacePrefix": "mytaskslabs",
      "type": "AuraDefinitionBundle"
    },
    {
      "createdById": "00561000002apObAAI",
      "createdByName": "Virginia Young",
      "createdDate": "2018-08-07T17:07:17.000Z",
      "fileName": "aura/HCPAddendumExportButton",
      "fullName": "HCPAddendumExportButton",
      "id": "0Ab610000004by8CAA",
      "lastModifiedById": "00561000002VHKTAA4",
      "lastModifiedByName": "justin brooks",
      "lastModifiedDate": "2018-08-10T16:08:23.000Z",
      "manageableState": "unmanaged",
      "type": "AuraDefinitionBundle"
    },
    {
      "createdById": "00561000002AxnRAAS",
      "createdByName": "Bard BPV",
      "createdDate": "2020-03-23T13:37:08.000Z",
      "fileName": "aura/ODINProductEditModal",
      "fullName": "ODINProductEditModal",
      "id": "0Ab4N000000LZkGSAW",
      "lastModifiedById": "00561000002AxnRAAS",
      "lastModifiedByName": "Bard BPV",
      "lastModifiedDate": "2020-04-02T16:43:06.000Z",
      "manageableState": "unmanaged",
      "type": "AuraDefinitionBundle"
    },
    {
      "createdById": "00561000002AxnRAAS",
      "createdByName": "Bard BPV",
      "createdDate": "2020-03-23T13:37:08.000Z",
      "fileName": "aura/ODINCountrySelected",
      "fullName": "ODINCountrySelected",
      "id": "0Ab4N000000LZk7SAG",
      "lastModifiedById": "00561000002AxnRAAS",
      "lastModifiedByName": "Bard BPV",
      "lastModifiedDate": "2020-03-23T13:37:31.000Z",
      "manageableState": "unmanaged",
      "type": "AuraDefinitionBundle"
    },
    {
      "createdById": "00561000002apObAAI",
      "createdByName": "Virginia Young",
      "createdDate": "2018-08-07T17:07:18.000Z",
      "fileName": "aura/CampaignFlightDataChanged",
      "fullName": "CampaignFlightDataChanged",
      "id": "0Ab610000004byOCAQ",
      "lastModifiedById": "00561000002apObAAI",
      "lastModifiedByName": "Virginia Young",
      "lastModifiedDate": "2018-08-07T17:07:24.000Z",
      "manageableState": "unmanaged",
      "type": "AuraDefinitionBundle"
    },
    {
      "createdById": "00561000002apObAAI",
      "createdByName": "Virginia Young",
      "createdDate": "2018-08-07T17:07:18.000Z",
      "fileName": "aura/CampaignTransportations",
      "fullName": "CampaignTransportations",
      "id": "0Ab610000004byTCAQ",
      "lastModifiedById": "00561000002apObAAI",
      "lastModifiedByName": "Virginia Young",
      "lastModifiedDate": "2018-08-07T17:08:29.000Z",
      "manageableState": "unmanaged",
      "type": "AuraDefinitionBundle"
    },
    {
      "createdById": "00561000002apObAAI",
      "createdByName": "Virginia Young",
      "createdDate": "2018-08-07T17:07:17.000Z",
      "fileName": "aura/CampaignMembers",
      "fullName": "CampaignMembers",
      "id": "0Ab610000004by6CAA",
      "lastModifiedById": "00561000002apObAAI",
      "lastModifiedByName": "Virginia Young",
      "lastModifiedDate": "2018-08-07T17:08:26.000Z",
      "manageableState": "unmanaged",
      "type": "AuraDefinitionBundle"
    },
    {
      "createdById": "00561000002apObAAI",
      "createdByName": "Virginia Young",
      "createdDate": "2018-08-07T17:07:17.000Z",
      "fileName": "aura/CampaignFlight",
      "fullName": "CampaignFlight",
      "id": "0Ab610000004byCCAQ",
      "lastModifiedById": "00561000002apObAAI",
      "lastModifiedByName": "Virginia Young",
      "lastModifiedDate": "2018-08-07T17:08:28.000Z",
      "manageableState": "unmanaged",
      "type": "AuraDefinitionBundle"
    },
    {
      "createdById": "00561000002apObAAI",
      "createdByName": "Virginia Young",
      "createdDate": "2018-08-07T17:07:18.000Z",
      "fileName": "aura/CampaignLedgerApp",
      "fullName": "CampaignLedgerApp",
      "id": "0Ab610000004byQCAQ",
      "lastModifiedById": "00561000002apObAAI",
      "lastModifiedByName": "Virginia Young",
      "lastModifiedDate": "2018-08-07T17:08:29.000Z",
      "manageableState": "unmanaged",
      "type": "AuraDefinitionBundle"
    },
    {
      "createdById": "00561000002apObAAI",
      "createdByName": "Virginia Young",
      "createdDate": "2018-08-07T17:07:17.000Z",
      "fileName": "aura/CampaignMeal",
      "fullName": "CampaignMeal",
      "id": "0Ab610000004bxtCAA",
      "lastModifiedById": "00561000002apObAAI",
      "lastModifiedByName": "Virginia Young",
      "lastModifiedDate": "2018-08-07T17:08:24.000Z",
      "manageableState": "unmanaged",
      "type": "AuraDefinitionBundle"
    },
    {
      "createdById": "00561000002AxnRAAS",
      "createdByName": "Bard BPV",
      "createdDate": "2018-06-29T16:03:45.000Z",
      "fileName": "aura/KOLSearch",
      "fullName": "KOLSearch",
      "id": "0Ab610000004auGCAQ",
      "lastModifiedById": "00561000002apObAAI",
      "lastModifiedByName": "Virginia Young",
      "lastModifiedDate": "2018-08-07T17:08:32.000Z",
      "manageableState": "unmanaged",
      "type": "AuraDefinitionBundle"
    },
    {
      "createdById": "00561000002apObAAI",
      "createdByName": "Virginia Young",
      "createdDate": "2018-08-07T17:07:17.000Z",
      "fileName": "aura/ConfirmDeleteCampaignMemberModalFooter",
      "fullName": "ConfirmDeleteCampaignMemberModalFooter",
      "id": "0Ab610000004byMCAQ",
      "lastModifiedById": "00561000002apObAAI",
      "lastModifiedByName": "Virginia Young",
      "lastModifiedDate": "2018-08-07T17:08:29.000Z",
      "manageableState": "unmanaged",
      "type": "AuraDefinitionBundle"
    },
    {
      "createdById": "00561000002AxnRAAS",
      "createdByName": "Bard BPV",
      "createdDate": "2020-03-23T13:37:08.000Z",
      "fileName": "aura/ODINFinancialModal",
      "fullName": "ODINFinancialModal",
      "id": "0Ab4N000000LZkASAW",
      "lastModifiedById": "00561000002AxnRAAS",
      "lastModifiedByName": "Bard BPV",
      "lastModifiedDate": "2020-03-23T13:37:30.000Z",
      "manageableState": "unmanaged",
      "type": "AuraDefinitionBundle"
    },
    {
      "createdById": "00561000002apObAAI",
      "createdByName": "Virginia Young",
      "createdDate": "2018-08-07T17:07:17.000Z",
      "fileName": "aura/CampaignTransportation",
      "fullName": "CampaignTransportation",
      "id": "0Ab610000004byACAQ",
      "lastModifiedById": "00561000002apObAAI",
      "lastModifiedByName": "Virginia Young",
      "lastModifiedDate": "2018-08-07T17:08:27.000Z",
      "manageableState": "unmanaged",
      "type": "AuraDefinitionBundle"
    },
    {
      "createdById": "00561000002AxnRAAS",
      "createdByName": "Bard BPV",
      "createdDate": "2019-01-31T15:48:18.000Z",
      "fileName": "aura/PeriodSelector",
      "fullName": "PeriodSelector",
      "id": "0Ab61000000g0kRCAQ",
      "lastModifiedById": "0052h000000kXf9AAE",
      "lastModifiedByName": "Arkus Developer",
      "lastModifiedDate": "2020-09-21T14:21:09.000Z",
      "manageableState": "unmanaged",
      "type": "AuraDefinitionBundle"
    },
    {
      "createdById": "00561000002apObAAI",
      "createdByName": "Virginia Young",
      "createdDate": "2018-08-07T17:07:18.000Z",
      "fileName": "aura/CampaignProctorFee",
      "fullName": "CampaignProctorFee",
      "id": "0Ab610000004byVCAQ",
      "lastModifiedById": "00561000002apObAAI",
      "lastModifiedByName": "Virginia Young",
      "lastModifiedDate": "2018-08-07T17:08:30.000Z",
      "manageableState": "unmanaged",
      "type": "AuraDefinitionBundle"
    },
    {
      "createdById": "00561000002apObAAI",
      "createdByName": "Virginia Young",
      "createdDate": "2018-08-07T17:07:18.000Z",
      "fileName": "aura/CampaignHotels",
      "fullName": "CampaignHotels",
      "id": "0Ab610000004byiCAA",
      "lastModifiedById": "00561000002apObAAI",
      "lastModifiedByName": "Virginia Young",
      "lastModifiedDate": "2018-08-07T17:08:31.000Z",
      "manageableState": "unmanaged",
      "type": "AuraDefinitionBundle"
    },
    {
      "createdById": "00561000002apObAAI",
      "createdByName": "Virginia Young",
      "createdDate": "2018-08-07T17:07:18.000Z",
      "fileName": "aura/CampaignMealModalContent",
      "fullName": "CampaignMealModalContent",
      "id": "0Ab610000004bycCAA",
      "lastModifiedById": "00561000002VHKTAA4",
      "lastModifiedByName": "justin brooks",
      "lastModifiedDate": "2018-08-10T16:08:29.000Z",
      "manageableState": "unmanaged",
      "type": "AuraDefinitionBundle"
    },
    {
      "createdById": "0052h000000kXf9AAE",
      "createdByName": "Arkus Developer",
      "createdDate": "2020-05-12T12:44:00.000Z",
      "fileName": "aura/OpportunitiesAndSalesGAP",
      "fullName": "OpportunitiesAndSalesGAP",
      "id": "0Ab2h0000008uiUCAQ",
      "lastModifiedById": "0052h000000kXf9AAE",
      "lastModifiedByName": "Arkus Developer",
      "lastModifiedDate": "2020-08-19T12:49:16.000Z",
      "manageableState": "unmanaged",
      "type": "AuraDefinitionBundle"
    },
    {
      "createdById": "00561000002apObAAI",
      "createdByName": "Virginia Young",
      "createdDate": "2018-08-07T17:07:17.000Z",
      "fileName": "aura/ConfirmDeleteCampaignProctorFeeModalFooter",
      "fullName": "ConfirmDeleteCampaignProctorFeeModalFooter",
      "id": "0Ab610000004byGCAQ",
      "lastModifiedById": "00561000002apObAAI",
      "lastModifiedByName": "Virginia Young",
      "lastModifiedDate": "2018-08-07T17:08:28.000Z",
      "manageableState": "unmanaged",
      "type": "AuraDefinitionBundle"
    },
    {
      "createdById": "00561000002apObAAI",
      "createdByName": "Virginia Young",
      "createdDate": "2018-08-07T17:07:18.000Z",
      "fileName": "aura/ConfirmModalContent",
      "fullName": "ConfirmModalContent",
      "id": "0Ab610000004byfCAA",
      "lastModifiedById": "00561000002apObAAI",
      "lastModifiedByName": "Virginia Young",
      "lastModifiedDate": "2018-08-07T17:07:27.000Z",
      "manageableState": "unmanaged",
      "type": "AuraDefinitionBundle"
    },
    {
      "createdById": "00561000002AxnRAAS",
      "createdByName": "Bard BPV",
      "createdDate": "2018-06-29T16:03:45.000Z",
      "fileName": "aura/Pagination",
      "fullName": "Pagination",
      "id": "0Ab610000004auFCAQ",
      "lastModifiedById": "00561000002apObAAI",
      "lastModifiedByName": "Virginia Young",
      "lastModifiedDate": "2018-08-07T17:08:26.000Z",
      "manageableState": "unmanaged",
      "type": "AuraDefinitionBundle"
    },
    {
      "createdById": "00561000002AxnRAAS",
      "createdByName": "Bard BPV",
      "createdDate": "2018-06-29T16:03:45.000Z",
      "fileName": "aura/PageChanged",
      "fullName": "PageChanged",
      "id": "0Ab610000004auKCAQ",
      "lastModifiedById": "00561000002apObAAI",
      "lastModifiedByName": "Virginia Young",
      "lastModifiedDate": "2018-08-07T17:07:27.000Z",
      "manageableState": "unmanaged",
      "type": "AuraDefinitionBundle"
    },
    {
      "createdById": "00561000002AxnRAAS",
      "createdByName": "Bard BPV",
      "createdDate": "2019-01-31T15:48:18.000Z",
      "fileName": "aura/PDS_FilterProductsByAccount",
      "fullName": "PDS_FilterProductsByAccount",
      "id": "0Ab61000000g0kSCAQ",
      "lastModifiedById": "00561000002AxnRAAS",
      "lastModifiedByName": "Bard BPV",
      "lastModifiedDate": "2019-07-30T22:00:06.000Z",
      "manageableState": "unmanaged",
      "type": "AuraDefinitionBundle"
    },
    {
      "createdById": "00561000002apObAAI",
      "createdByName": "Virginia Young",
      "createdDate": "2018-08-07T17:07:17.000Z",
      "fileName": "aura/CampaignMember",
      "fullName": "CampaignMember",
      "id": "0Ab610000004by7CAA",
      "lastModifiedById": "00561000002apObAAI",
      "lastModifiedByName": "Virginia Young",
      "lastModifiedDate": "2018-08-07T17:08:27.000Z",
      "manageableState": "unmanaged",
      "type": "AuraDefinitionBundle"
    },
    {
      "createdById": "00561000002AxnRAAS",
      "createdByName": "Bard BPV",
      "createdDate": "2019-01-31T15:48:17.000Z",
      "fileName": "aura/PDS_DistributorSwitch",
      "fullName": "PDS_DistributorSwitch",
      "id": "0Ab61000000g0kICAQ",
      "lastModifiedById": "0052h000000kXf9AAE",
      "lastModifiedByName": "Arkus Developer",
      "lastModifiedDate": "2020-09-21T14:23:15.000Z",
      "manageableState": "unmanaged",
      "type": "AuraDefinitionBundle"
    },
    {
      "createdById": "00561000002apObAAI",
      "createdByName": "Virginia Young",
      "createdDate": "2018-08-07T17:07:18.000Z",
      "fileName": "aura/CampaignProctorFeeApp",
      "fullName": "CampaignProctorFeeApp",
      "id": "0Ab610000004bylCAA",
      "lastModifiedById": "00561000002apObAAI",
      "lastModifiedByName": "Virginia Young",
      "lastModifiedDate": "2018-08-07T17:08:32.000Z",
      "manageableState": "unmanaged",
      "type": "AuraDefinitionBundle"
    },
    {
      "createdById": "00561000002AxnRAAS",
      "createdByName": "Bard BPV",
      "createdDate": "2020-03-23T13:37:08.000Z",
      "fileName": "aura/ODINMassAssignTaskModal",
      "fullName": "ODINMassAssignTaskModal",
      "id": "0Ab4N000000LZkBSAW",
      "lastModifiedById": "00561000002AxnRAAS",
      "lastModifiedByName": "Bard BPV",
      "lastModifiedDate": "2020-03-23T13:37:34.000Z",
      "manageableState": "unmanaged",
      "type": "AuraDefinitionBundle"
    },
    {
      "createdById": "00561000002AxnRAAS",
      "createdByName": "Bard BPV",
      "createdDate": "2018-06-29T16:03:45.000Z",
      "fileName": "aura/KOLHelpModalHeader",
      "fullName": "KOLHelpModalHeader",
      "id": "0Ab610000004auHCAQ",
      "lastModifiedById": "00561000002apObAAI",
      "lastModifiedByName": "Virginia Young",
      "lastModifiedDate": "2018-08-07T17:07:19.000Z",
      "manageableState": "unmanaged",
      "type": "AuraDefinitionBundle"
    },
    {
      "createdById": "00561000002apObAAI",
      "createdByName": "Virginia Young",
      "createdDate": "2018-08-07T17:07:17.000Z",
      "fileName": "aura/ConfirmDeleteCampaignMealModalFooter",
      "fullName": "ConfirmDeleteCampaignMealModalFooter",
      "id": "0Ab610000004byICAQ",
      "lastModifiedById": "00561000002apObAAI",
      "lastModifiedByName": "Virginia Young",
      "lastModifiedDate": "2018-08-07T17:08:28.000Z",
      "manageableState": "unmanaged",
      "type": "AuraDefinitionBundle"
    },
    {
      "createdById": "00561000002apObAAI",
      "createdByName": "Virginia Young",
      "createdDate": "2018-08-07T17:07:18.000Z",
      "fileName": "aura/CampaignMemberUpdated",
      "fullName": "CampaignMemberUpdated",
      "id": "0Ab610000004byjCAA",
      "lastModifiedById": "00561000002apObAAI",
      "lastModifiedByName": "Virginia Young",
      "lastModifiedDate": "2018-08-07T17:07:27.000Z",
      "manageableState": "unmanaged",
      "type": "AuraDefinitionBundle"
    },
    {
      "createdById": "00561000002AxnRAAS",
      "createdByName": "Bard BPV",
      "createdDate": "2020-03-23T13:37:08.000Z",
      "fileName": "aura/ODINFinancialInterestSelector",
      "fullName": "ODINFinancialInterestSelector",
      "id": "0Ab4N000000LZkDSAW",
      "lastModifiedById": "00561000002AxnRAAS",
      "lastModifiedByName": "Bard BPV",
      "lastModifiedDate": "2020-03-23T13:37:34.000Z",
      "manageableState": "unmanaged",
      "type": "AuraDefinitionBundle"
    },
    {
      "createdById": "00561000002apObAAI",
      "createdByName": "Virginia Young",
      "createdDate": "2018-08-07T17:07:18.000Z",
      "fileName": "aura/CampaignFlights",
      "fullName": "CampaignFlights",
      "id": "0Ab610000004bykCAA",
      "lastModifiedById": "00561000002apObAAI",
      "lastModifiedByName": "Virginia Young",
      "lastModifiedDate": "2018-08-07T17:08:31.000Z",
      "manageableState": "unmanaged",
      "type": "AuraDefinitionBundle"
    },
    {
      "createdById": "00561000002AxnRAAS",
      "createdByName": "Bard BPV",
      "createdDate": "2019-01-31T15:48:17.000Z",
      "fileName": "aura/CustomerAndProductGAP",
      "fullName": "CustomerAndProductGAP",
      "id": "0Ab61000000g0kLCAQ",
      "lastModifiedById": "0052h000000kXf9AAE",
      "lastModifiedByName": "Arkus Developer",
      "lastModifiedDate": "2020-10-08T17:26:30.000Z",
      "manageableState": "unmanaged",
      "type": "AuraDefinitionBundle"
    },
    {
      "createdById": "00561000002AxnRAAS",
      "createdByName": "Bard BPV",
      "createdDate": "2019-01-31T15:48:17.000Z",
      "fileName": "aura/PDS_DistributorSwitched",
      "fullName": "PDS_DistributorSwitched",
      "id": "0Ab61000000g0kKCAQ",
      "lastModifiedById": "00561000002AxnRAAS",
      "lastModifiedByName": "Bard BPV",
      "lastModifiedDate": "2019-07-30T22:00:04.000Z",
      "manageableState": "unmanaged",
      "type": "AuraDefinitionBundle"
    },
    {
      "createdById": "00561000002AxnRAAS",
      "createdByName": "Bard BPV",
      "createdDate": "2018-06-29T16:03:45.000Z",
      "fileName": "aura/KOLHelpModalFooter",
      "fullName": "KOLHelpModalFooter",
      "id": "0Ab610000004auECAQ",
      "lastModifiedById": "00561000002apObAAI",
      "lastModifiedByName": "Virginia Young",
      "lastModifiedDate": "2018-08-07T17:07:23.000Z",
      "manageableState": "unmanaged",
      "type": "AuraDefinitionBundle"
    },
    {
      "createdById": "00561000002AxnRAAS",
      "createdByName": "Bard BPV",
      "createdDate": "2020-03-23T13:37:08.000Z",
      "fileName": "aura/ODINFinancial5YearsForm",
      "fullName": "ODINFinancial5YearsForm",
      "id": "0Ab4N000000LZk4SAG",
      "lastModifiedById": "00561000002AxnRAAS",
      "lastModifiedByName": "Bard BPV",
      "lastModifiedDate": "2020-03-23T13:37:32.000Z",
      "manageableState": "unmanaged",
      "type": "AuraDefinitionBundle"
    },
    {
      "createdById": "00561000002apObAAI",
      "createdByName": "Virginia Young",
      "createdDate": "2018-08-07T17:07:17.000Z",
      "fileName": "aura/CampaignIncidentalModalContent",
      "fullName": "CampaignIncidentalModalContent",
      "id": "0Ab610000004by0CAA",
      "lastModifiedById": "00561000002apObAAI",
      "lastModifiedByName": "Virginia Young",
      "lastModifiedDate": "2018-08-07T17:08:25.000Z",
      "manageableState": "unmanaged",
      "type": "AuraDefinitionBundle"
    },
    {
      "createdById": "00561000002AxnRAAS",
      "createdByName": "Bard BPV",
      "createdDate": "2018-12-20T17:49:44.000Z",
      "fileName": "aura/CMTD__ERL_List",
      "fullName": "CMTD__ERL_List",
      "id": "0Ab61000000kCVFCA2",
      "lastModifiedById": "00561000002AxnRAAS",
      "lastModifiedByName": "Bard BPV",
      "lastModifiedDate": "2018-12-20T17:49:53.000Z",
      "manageableState": "installed",
      "namespacePrefix": "CMTD",
      "type": "AuraDefinitionBundle"
    },
    {
      "createdById": "00561000002AxnRAAS",
      "createdByName": "Bard BPV",
      "createdDate": "2020-03-23T13:37:08.000Z",
      "fileName": "aura/ODINInterestSelected",
      "fullName": "ODINInterestSelected",
      "id": "0Ab4N000000LZk8SAG",
      "lastModifiedById": "00561000002AxnRAAS",
      "lastModifiedByName": "Bard BPV",
      "lastModifiedDate": "2020-03-23T13:37:31.000Z",
      "manageableState": "unmanaged",
      "type": "AuraDefinitionBundle"
    },
    {
      "createdById": "00561000002AxnRAAS",
      "createdByName": "Bard BPV",
      "createdDate": "2018-12-20T17:49:45.000Z",
      "fileName": "aura/CMTD__ERL_RefreshEvent",
      "fullName": "CMTD__ERL_RefreshEvent",
      "id": "0Ab61000000kCVICA2",
      "lastModifiedById": "00561000002AxnRAAS",
      "lastModifiedByName": "Bard BPV",
      "lastModifiedDate": "2018-12-20T17:49:46.000Z",
      "manageableState": "installed",
      "namespacePrefix": "CMTD",
      "type": "AuraDefinitionBundle"
    },
    {
      "createdById": "00561000002AxnRAAS",
      "createdByName": "Bard BPV",
      "createdDate": "2019-01-31T15:48:18.000Z",
      "fileName": "aura/PDS_FiltersHeader",
      "fullName": "PDS_FiltersHeader",
      "id": "0Ab61000000g0kQCAQ",
      "lastModifiedById": "00561000002AxnRAAS",
      "lastModifiedByName": "Bard BPV",
      "lastModifiedDate": "2019-07-30T22:00:07.000Z",
      "manageableState": "unmanaged",
      "type": "AuraDefinitionBundle"
    },
    {
      "createdById": "00561000002AxnRAAS",
      "createdByName": "Bard BPV",
      "createdDate": "2019-12-05T12:46:41.000Z",
      "fileName": "aura/irsadcAccountSummaryWrapper",
      "fullName": "irsadcAccountSummaryWrapper",
      "id": "0Ab4N000000TbYpSAK",
      "lastModifiedById": "0052h000000kXf9AAE",
      "lastModifiedByName": "Arkus Developer",
      "lastModifiedDate": "2020-10-13T19:27:11.000Z",
      "manageableState": "unmanaged",
      "type": "AuraDefinitionBundle"
    },
    {
      "createdById": "00561000002AxnRAAS",
      "createdByName": "Bard BPV",
      "createdDate": "2020-03-23T13:37:08.000Z",
      "fileName": "aura/ODINQuestionSelected",
      "fullName": "ODINQuestionSelected",
      "id": "0Ab4N000000LZkHSAW",
      "lastModifiedById": "00561000002AxnRAAS",
      "lastModifiedByName": "Bard BPV",
      "lastModifiedDate": "2020-03-23T13:37:32.000Z",
      "manageableState": "unmanaged",
      "type": "AuraDefinitionBundle"
    },
    {
      "createdById": "00561000002apObAAI",
      "createdByName": "Virginia Young",
      "createdDate": "2018-08-07T17:07:17.000Z",
      "fileName": "aura/CampaignIncidental",
      "fullName": "CampaignIncidental",
      "id": "0Ab610000004by9CAA",
      "lastModifiedById": "00561000002apObAAI",
      "lastModifiedByName": "Virginia Young",
      "lastModifiedDate": "2018-08-07T17:08:27.000Z",
      "manageableState": "unmanaged",
      "type": "AuraDefinitionBundle"
    },
    {
      "createdById": "00561000002VHKTAA4",
      "createdByName": "justin brooks",
      "createdDate": "2018-11-08T04:54:31.000Z",
      "fileName": "aura/KOLNominationButtons",
      "fullName": "KOLNominationButtons",
      "id": "0Ab61000000kBpMCAU",
      "lastModifiedById": "00561000002AxnRAAS",
      "lastModifiedByName": "Bard BPV",
      "lastModifiedDate": "2020-03-09T13:47:01.000Z",
      "manageableState": "unmanaged",
      "type": "AuraDefinitionBundle"
    },
    {
      "createdById": "00561000002apObAAI",
      "createdByName": "Virginia Young",
      "createdDate": "2018-08-07T17:07:17.000Z",
      "fileName": "aura/CampaignIncidentals",
      "fullName": "CampaignIncidentals",
      "id": "0Ab610000004bxxCAA",
      "lastModifiedById": "00561000002apObAAI",
      "lastModifiedByName": "Virginia Young",
      "lastModifiedDate": "2018-08-07T17:08:25.000Z",
      "manageableState": "unmanaged",
      "type": "AuraDefinitionBundle"
    },
    {
      "createdById": "00561000002apObAAI",
      "createdByName": "Virginia Young",
      "createdDate": "2018-08-07T17:07:18.000Z",
      "fileName": "aura/CampaignMealDataChanged",
      "fullName": "CampaignMealDataChanged",
      "id": "0Ab610000004byWCAQ",
      "lastModifiedById": "00561000002apObAAI",
      "lastModifiedByName": "Virginia Young",
      "lastModifiedDate": "2018-08-07T17:07:25.000Z",
      "manageableState": "unmanaged",
      "type": "AuraDefinitionBundle"
    },
    {
      "createdById": "00561000002AxnRAAS",
      "createdByName": "Bard BPV",
      "createdDate": "2019-07-30T21:59:59.000Z",
      "fileName": "aura/PDSe_ServerCallIssued",
      "fullName": "PDSe_ServerCallIssued",
      "id": "0Ab4N000000TaMSSA0",
      "lastModifiedById": "00561000002AxnRAAS",
      "lastModifiedByName": "Bard BPV",
      "lastModifiedDate": "2019-07-30T22:00:06.000Z",
      "manageableState": "unmanaged",
      "type": "AuraDefinitionBundle"
    },
    {
      "createdById": "00561000002apObAAI",
      "createdByName": "Virginia Young",
      "createdDate": "2018-08-07T17:07:17.000Z",
      "fileName": "aura/CampaignHotel",
      "fullName": "CampaignHotel",
      "id": "0Ab610000004bxuCAA",
      "lastModifiedById": "00561000002apObAAI",
      "lastModifiedByName": "Virginia Young",
      "lastModifiedDate": "2018-08-07T17:08:24.000Z",
      "manageableState": "unmanaged",
      "type": "AuraDefinitionBundle"
    },
    {
      "createdById": "00561000002apObAAI",
      "createdByName": "Virginia Young",
      "createdDate": "2018-08-07T17:07:17.000Z",
      "fileName": "aura/ApostleTechLookupRecordSelected",
      "fullName": "ApostleTechLookupRecordSelected",
      "id": "0Ab610000004byNCAQ",
      "lastModifiedById": "00561000002apObAAI",
      "lastModifiedByName": "Virginia Young",
      "lastModifiedDate": "2018-08-07T17:07:24.000Z",
      "manageableState": "unmanaged",
      "type": "AuraDefinitionBundle"
    },
    {
      "createdById": "00561000002AxnRAAS",
      "createdByName": "Bard BPV",
      "createdDate": "2019-06-03T19:37:52.000Z",
      "fileName": "aura/BusinessReviewUtilities",
      "fullName": "BusinessReviewUtilities",
      "id": "0Ab4N000000boTWSAY",
      "lastModifiedById": "0052h000000kXf9AAE",
      "lastModifiedByName": "Arkus Developer",
      "lastModifiedDate": "2020-09-24T20:23:54.000Z",
      "manageableState": "unmanaged",
      "type": "AuraDefinitionBundle"
    },
    {
      "createdById": "00561000002AxnRAAS",
      "createdByName": "Bard BPV",
      "createdDate": "2019-12-05T12:46:41.000Z",
      "fileName": "aura/irsadcProductGroupSummaryWrapper",
      "fullName": "irsadcProductGroupSummaryWrapper",
      "id": "0Ab4N000000TbYoSAK",
      "lastModifiedById": "0052h000000kXf9AAE",
      "lastModifiedByName": "Arkus Developer",
      "lastModifiedDate": "2020-10-14T18:03:12.000Z",
      "manageableState": "unmanaged",
      "type": "AuraDefinitionBundle"
    },
    {
      "createdById": "00561000002apObAAI",
      "createdByName": "Virginia Young",
      "createdDate": "2018-08-07T17:07:17.000Z",
      "fileName": "aura/ConfirmModalHeader",
      "fullName": "ConfirmModalHeader",
      "id": "0Ab610000004by5CAA",
      "lastModifiedById": "00561000002apObAAI",
      "lastModifiedByName": "Virginia Young",
      "lastModifiedDate": "2018-08-07T17:07:22.000Z",
      "manageableState": "unmanaged",
      "type": "AuraDefinitionBundle"
    },
    {
      "createdById": "00561000002apObAAI",
      "createdByName": "Virginia Young",
      "createdDate": "2018-08-07T17:07:17.000Z",
      "fileName": "aura/ConfirmDeleteCampaignFlightModalFooter",
      "fullName": "ConfirmDeleteCampaignFlightModalFooter",
      "id": "0Ab610000004byDCAQ",
      "lastModifiedById": "00561000002apObAAI",
      "lastModifiedByName": "Virginia Young",
      "lastModifiedDate": "2018-08-07T17:08:28.000Z",
      "manageableState": "unmanaged",
      "type": "AuraDefinitionBundle"
    },
    {
      "createdById": "00561000002AxnRAAS",
      "createdByName": "Bard BPV",
      "createdDate": "2019-01-31T15:48:17.000Z",
      "fileName": "aura/PeriodViewChanged",
      "fullName": "PeriodViewChanged",
      "id": "0Ab61000000g0kMCAQ",
      "lastModifiedById": "00561000002AxnRAAS",
      "lastModifiedByName": "Bard BPV",
      "lastModifiedDate": "2019-07-30T22:00:05.000Z",
      "manageableState": "unmanaged",
      "type": "AuraDefinitionBundle"
    },
    {
      "createdById": "00561000002apObAAI",
      "createdByName": "Virginia Young",
      "createdDate": "2018-08-07T17:07:18.000Z",
      "fileName": "aura/CampaignHotelsApp",
      "fullName": "CampaignHotelsApp",
      "id": "0Ab610000004bygCAA",
      "lastModifiedById": "00561000002apObAAI",
      "lastModifiedByName": "Virginia Young",
      "lastModifiedDate": "2018-08-07T17:08:31.000Z",
      "manageableState": "unmanaged",
      "type": "AuraDefinitionBundle"
    },
    {
      "createdById": "00561000002AxnRAAS",
      "createdByName": "Bard BPV",
      "createdDate": "2018-06-29T16:03:45.000Z",
      "fileName": "aura/KOLHelpModalContent",
      "fullName": "KOLHelpModalContent",
      "id": "0Ab610000004auICAQ",
      "lastModifiedById": "00561000002apObAAI",
      "lastModifiedByName": "Virginia Young",
      "lastModifiedDate": "2018-08-07T17:07:19.000Z",
      "manageableState": "unmanaged",
      "type": "AuraDefinitionBundle"
    },
    {
      "createdById": "00561000002apObAAI",
      "createdByName": "Virginia Young",
      "createdDate": "2018-08-07T17:07:18.000Z",
      "fileName": "aura/CampaignExpenses",
      "fullName": "CampaignExpenses",
      "id": "0Ab610000004byRCAQ",
      "lastModifiedById": "00561000002apObAAI",
      "lastModifiedByName": "Virginia Young",
      "lastModifiedDate": "2018-08-07T17:08:29.000Z",
      "manageableState": "unmanaged",
      "type": "AuraDefinitionBundle"
    },
    {
      "createdById": "00561000002apObAAI",
      "createdByName": "Virginia Young",
      "createdDate": "2018-08-07T17:07:17.000Z",
      "fileName": "aura/ApostleTechLookupResult",
      "fullName": "ApostleTechLookupResult",
      "id": "0Ab610000004byECAQ",
      "lastModifiedById": "00561000002AxnRAAS",
      "lastModifiedByName": "Bard BPV",
      "lastModifiedDate": "2020-03-09T13:47:01.000Z",
      "manageableState": "unmanaged",
      "type": "AuraDefinitionBundle"
    },
    {
      "createdById": "00561000002apObAAI",
      "createdByName": "Virginia Young",
      "createdDate": "2018-08-07T17:07:18.000Z",
      "fileName": "aura/ApostleTechLookupClearSelectedRecord",
      "fullName": "ApostleTechLookupClearSelectedRecord",
      "id": "0Ab610000004byYCAQ",
      "lastModifiedById": "00561000002apObAAI",
      "lastModifiedByName": "Virginia Young",
      "lastModifiedDate": "2018-08-07T17:07:25.000Z",
      "manageableState": "unmanaged",
      "type": "AuraDefinitionBundle"
    },
    {
      "createdById": "00561000002apObAAI",
      "createdByName": "Virginia Young",
      "createdDate": "2018-08-07T17:07:17.000Z",
      "fileName": "aura/UpcomingCourses",
      "fullName": "UpcomingCourses",
      "id": "0Ab610000004byLCAQ",
      "lastModifiedById": "00561000002AxnRAAS",
      "lastModifiedByName": "Bard BPV",
      "lastModifiedDate": "2020-03-09T13:47:01.000Z",
      "manageableState": "unmanaged",
      "type": "AuraDefinitionBundle"
    },
    {
      "createdById": "00561000002apObAAI",
      "createdByName": "Virginia Young",
      "createdDate": "2018-08-07T17:07:18.000Z",
      "fileName": "aura/CampaignIncidentalDataChanged",
      "fullName": "CampaignIncidentalDataChanged",
      "id": "0Ab610000004bypCAA",
      "lastModifiedById": "00561000002apObAAI",
      "lastModifiedByName": "Virginia Young",
      "lastModifiedDate": "2018-08-07T17:07:29.000Z",
      "manageableState": "unmanaged",
      "type": "AuraDefinitionBundle"
    },
    {
      "createdById": "00561000002AxnRAAS",
      "createdByName": "Bard BPV",
      "createdDate": "2020-05-06T21:30:30.000Z",
      "fileName": "aura/ODINReportCreator",
      "fullName": "ODINReportCreator",
      "id": "0Ab4N000000PgrXSAS",
      "lastModifiedById": "00561000002AxnRAAS",
      "lastModifiedByName": "Bard BPV",
      "lastModifiedDate": "2020-05-07T15:45:30.000Z",
      "manageableState": "unmanaged",
      "type": "AuraDefinitionBundle"
    },
    {
      "createdById": "00561000002apObAAI",
      "createdByName": "Virginia Young",
      "createdDate": "2018-08-07T17:07:17.000Z",
      "fileName": "aura/ApostleTechLookup",
      "fullName": "ApostleTechLookup",
      "id": "0Ab610000004by2CAA",
      "lastModifiedById": "00561000002AxnRAAS",
      "lastModifiedByName": "Bard BPV",
      "lastModifiedDate": "2020-03-09T13:47:01.000Z",
      "manageableState": "unmanaged",
      "type": "AuraDefinitionBundle"
    },
    {
      "createdById": "00561000002AxnRAAS",
      "createdByName": "Bard BPV",
      "createdDate": "2019-01-31T15:48:17.000Z",
      "fileName": "aura/ProductGAP",
      "fullName": "ProductGAP",
      "id": "0Ab61000000g0kNCAQ",
      "lastModifiedById": "0052h000000kXf9AAE",
      "lastModifiedByName": "Arkus Developer",
      "lastModifiedDate": "2020-09-23T19:43:36.000Z",
      "manageableState": "unmanaged",
      "type": "AuraDefinitionBundle"
    },
    {
      "createdById": "00561000002AxnRAAS",
      "createdByName": "Bard BPV",
      "createdDate": "2018-12-20T17:49:45.000Z",
      "fileName": "aura/CMTD__ERL_RTSelector",
      "fullName": "CMTD__ERL_RTSelector",
      "id": "0Ab61000000kCVJCA2",
      "lastModifiedById": "00561000002AxnRAAS",
      "lastModifiedByName": "Bard BPV",
      "lastModifiedDate": "2018-12-20T17:49:54.000Z",
      "manageableState": "installed",
      "namespacePrefix": "CMTD",
      "type": "AuraDefinitionBundle"
    },
    {
      "createdById": "00561000002apObAAI",
      "createdByName": "Virginia Young",
      "createdDate": "2018-08-07T17:07:18.000Z",
      "fileName": "aura/CampaignHotelModalContent",
      "fullName": "CampaignHotelModalContent",
      "id": "0Ab610000004byZCAQ",
      "lastModifiedById": "00561000002VHKTAA4",
      "lastModifiedByName": "justin brooks",
      "lastModifiedDate": "2019-01-02T23:07:02.000Z",
      "manageableState": "unmanaged",
      "type": "AuraDefinitionBundle"
    },
    {
      "createdById": "00561000002AxnRAAS",
      "createdByName": "Bard BPV",
      "createdDate": "2020-03-23T13:37:08.000Z",
      "fileName": "aura/ODINFinancialQuestionForm",
      "fullName": "ODINFinancialQuestionForm",
      "id": "0Ab4N000000LZk6SAG",
      "lastModifiedById": "00561000002AxnRAAS",
      "lastModifiedByName": "Bard BPV",
      "lastModifiedDate": "2020-03-23T13:37:31.000Z",
      "manageableState": "unmanaged",
      "type": "AuraDefinitionBundle"
    },
    {
      "createdById": "00561000002apObAAI",
      "createdByName": "Virginia Young",
      "createdDate": "2018-08-07T17:07:17.000Z",
      "fileName": "aura/CampaignMembersApp",
      "fullName": "CampaignMembersApp",
      "id": "0Ab610000004bxsCAA",
      "lastModifiedById": "00561000002apObAAI",
      "lastModifiedByName": "Virginia Young",
      "lastModifiedDate": "2018-08-07T17:08:23.000Z",
      "manageableState": "unmanaged",
      "type": "AuraDefinitionBundle"
    },
    {
      "createdById": "00561000002AxnRAAS",
      "createdByName": "Bard BPV",
      "createdDate": "2018-06-29T16:03:45.000Z",
      "fileName": "aura/KOLSearchApp",
      "fullName": "KOLSearchApp",
      "id": "0Ab610000004auJCAQ",
      "lastModifiedById": "00561000002apObAAI",
      "lastModifiedByName": "Virginia Young",
      "lastModifiedDate": "2018-08-07T17:08:25.000Z",
      "manageableState": "unmanaged",
      "type": "AuraDefinitionBundle"
    },
    {
      "createdById": "00561000002apObAAI",
      "createdByName": "Virginia Young",
      "createdDate": "2018-08-07T17:07:18.000Z",
      "fileName": "aura/CampaignMemberAlert",
      "fullName": "CampaignMemberAlert",
      "id": "0Ab610000004byoCAA",
      "lastModifiedById": "00561000002apObAAI",
      "lastModifiedByName": "Virginia Young",
      "lastModifiedDate": "2018-08-07T17:07:28.000Z",
      "manageableState": "unmanaged",
      "type": "AuraDefinitionBundle"
    },
    {
      "createdById": "00561000002AxnRAAS",
      "createdByName": "Bard BPV",
      "createdDate": "2018-12-20T17:49:45.000Z",
      "fileName": "aura/CMTD__ERL_DeleteRecord",
      "fullName": "CMTD__ERL_DeleteRecord",
      "id": "0Ab61000000kCVHCA2",
      "lastModifiedById": "00561000002AxnRAAS",
      "lastModifiedByName": "Bard BPV",
      "lastModifiedDate": "2018-12-20T17:49:54.000Z",
      "manageableState": "installed",
      "namespacePrefix": "CMTD",
      "type": "AuraDefinitionBundle"
    },
    {
      "createdById": "00561000002AxnRAAS",
      "createdByName": "Bard BPV",
      "createdDate": "2020-03-23T13:37:08.000Z",
      "fileName": "aura/ODINProductModal",
      "fullName": "ODINProductModal",
      "id": "0Ab4N000000LZk5SAG",
      "lastModifiedById": "00561000002AxnRAAS",
      "lastModifiedByName": "Bard BPV",
      "lastModifiedDate": "2020-03-23T13:37:31.000Z",
      "manageableState": "unmanaged",
      "type": "AuraDefinitionBundle"
    },
    {
      "createdById": "00561000002AxnRAAS",
      "createdByName": "Bard BPV",
      "createdDate": "2019-01-31T15:48:17.000Z",
      "fileName": "aura/PDS_UserChanged",
      "fullName": "PDS_UserChanged",
      "id": "0Ab61000000g0kJCAQ",
      "lastModifiedById": "00561000002AxnRAAS",
      "lastModifiedByName": "Bard BPV",
      "lastModifiedDate": "2019-07-30T22:00:04.000Z",
      "manageableState": "unmanaged",
      "type": "AuraDefinitionBundle"
    },
    {
      "createdById": "00561000002apObAAI",
      "createdByName": "Virginia Young",
      "createdDate": "2018-08-07T17:07:17.000Z",
      "fileName": "aura/CampaignProctorFees",
      "fullName": "CampaignProctorFees",
      "id": "0Ab610000004bxwCAA",
      "lastModifiedById": "00561000002apObAAI",
      "lastModifiedByName": "Virginia Young",
      "lastModifiedDate": "2018-08-07T17:08:24.000Z",
      "manageableState": "unmanaged",
      "type": "AuraDefinitionBundle"
    }
  ]
}
